1812,18,NIŻAŃSKI,POWIAT NIŻAŃSKI,powiat niżański
1813,18,PRZEMYSKI,POWIAT PRZEMYSKI,powiat przemyski
1814,18,PRZEWORSKI,POWIAT PRZEWORSKI,powiat przeworski
1815,18,ROPCZYCKO-SĘDZISZOWSKI,POWIAT ROPCZYCKO-SĘDZISZOWSKI,powiat ropczycko-sędziszowski
1816,18,RZESZOWSKI,POWIAT RZESZOWSKI,powiat rzeszowski
1817,18,SANOCKI,POWIAT SANOCKI,powiat sanocki
1818,18,STALOWOWOLSKI,POWIAT STALOWOWOLSKI,powiat stalowowolski
1819,18,STRZYŻOWSKI,POWIAT STRZYŻOWSKI,powiat strzyżowski
1820,18,TARNOBRZESKI,POWIAT TARNOBRZESKI,powiat tarnobrzeski
1821,18,LESKI,POWIAT LESKI,powiat leski
1861,18,KROSNO,POWIAT KROSNO,powiat Krosno
1863,18,RZESZÓW,POWIAT RZESZÓW,powiat Rzeszów
1862,18,PRZEMYŚL,POWIAT PRZEMYŚL,powiat Przemyśl
1864,18,TARNOBRZEG,POWIAT TARNOBRZEG,powiat Tarnobrzeg
1410,14,ŁOSICKI,POWIAT ŁOSICKI,powiat łosicki
1414,14,NOWODWORSKI,POWIAT NOWODWORSKI,powiat nowodworski
1415,14,OSTROŁĘCKI,POWIAT OSTROŁĘCKI,powiat ostrołęcki
1416,14,OSTROWSKI,POWIAT OSTROWSKI,powiat ostrowski
1417,14,OTWOCKI,POWIAT OTWOCKI,powiat otwocki
1418,14,PIASECZYŃSKI,POWIAT PIASECZYŃSKI,powiat piaseczyński
1419,14,PŁOCKI,POWIAT PŁOCKI,powiat płocki
1420,14,PŁOŃSKI,POWIAT PŁOŃSKI,powiat płoński
1421,14,PRUSZKOWSKI,POWIAT PRUSZKOWSKI,powiat pruszkowski
1422,14,PRZASNYSKI,POWIAT PRZASNYSKI,powiat przasnyski
1423,14,PRZYSUSKI,POWIAT PRZYSUSKI,powiat przysuski
1412,14,MIŃSKI,POWIAT MIŃSKI,powiat miński
1413,14,MŁAWSKI,POWIAT MŁAWSKI,powiat mławski
1424,14,PUŁTUSKI,POWIAT PUŁTUSKI,powiat pułtuski
1425,14,RADOMSKI,POWIAT RADOMSKI,powiat radomski
1426,14,SIEDLECKI,POWIAT SIEDLECKI,powiat siedlecki
1427,14,SIERPECKI,POWIAT SIERPECKI,powiat sierpecki
1429,14,SOKOŁOWSKI,POWIAT SOKOŁOWSKI,powiat sokołowski
1428,14,SOCHACZEWSKI,POWIAT SOCHACZEWSKI,powiat sochaczewski
1430,14,SZYDŁOWIECKI,POWIAT SZYDŁOWIECKI,powiat szydłowiecki
1432,14,WARSZAWSKI ZACHODNI,POWIAT WARSZAWSKI ZACHODNI,powiat warszawski zachodni
1433,14,WĘGROWSKI,POWIAT WĘGROWSKI,powiat węgrowski
1401,14,BIAŁOBRZESKI,POWIAT BIAŁOBRZESKI,powiat białobrzeski
1402,14,CIECHANOWSKI,POWIAT CIECHANOWSKI,powiat ciechanowski
1403,14,GARWOLIŃSKI,POWIAT GARWOLIŃSKI,powiat garwoliński
1404,14,GOSTYNIŃSKI,POWIAT GOSTYNIŃSKI,powiat gostyniński
1405,14,GRODZISKI,POWIAT GRODZISKI,powiat grodziski
1406,14,GRÓJECKI,POWIAT GRÓJECKI,powiat grójecki
1407,14,KOZIENICKI,POWIAT KOZIENICKI,powiat kozienicki
1436,14,ZWOLEŃSKI,POWIAT ZWOLEŃSKI,powiat zwoleński
1408,14,LEGIONOWSKI,POWIAT LEGIONOWSKI,powiat legionowski
1409,14,LIPSKI,POWIAT LIPSKI,powiat lipski
1434,14,WOŁOMIŃSKI,POWIAT WOŁOMIŃSKI,powiat wołomiński
1435,14,WYSZKOWSKI,POWIAT WYSZKOWSKI,powiat wyszkowski
1437,14,ŻUROMIŃSKI,POWIAT ŻUROMIŃSKI,powiat żuromiński
0601,06,BIALSKI,POWIAT BIALSKI,powiat bialski
0602,06,BIŁGORAJSKI,POWIAT BIŁGORAJSKI,powiat biłgorajski
0603,06,CHEŁMSKI,POWIAT CHEŁMSKI,powiat chełmski
0604,06,HRUBIESZOWSKI,POWIAT HRUBIESZOWSKI,powiat hrubieszowski
0605,06,JANOWSKI,POWIAT JANOWSKI,powiat janowski
0606,06,KRASNOSTAWSKI,POWIAT KRASNOSTAWSKI,powiat krasnostawski
0607,06,KRAŚNICKI,POWIAT KRAŚNICKI,powiat kraśnicki
0608,06,LUBARTOWSKI,POWIAT LUBARTOWSKI,powiat lubartowski
0609,06,LUBELSKI,POWIAT LUBELSKI,powiat lubelski
0610,06,ŁĘCZYŃSKI,POWIAT ŁĘCZYŃSKI,powiat łęczyński
0611,06,ŁUKOWSKI,POWIAT ŁUKOWSKI,powiat łukowski
0612,06,OPOLSKI,POWIAT OPOLSKI,powiat opolski
0613,06,PARCZEWSKI,POWIAT PARCZEWSKI,powiat parczewski
0614,06,PUŁAWSKI,POWIAT PUŁAWSKI,powiat puławski
0615,06,RADZYŃSKI,POWIAT RADZYŃSKI,powiat radzyński
0616,06,RYCKI,POWIAT RYCKI,powiat rycki
0617,06,ŚWIDNICKI,POWIAT ŚWIDNICKI,powiat świdnicki
0618,06,TOMASZOWSKI,POWIAT TOMASZOWSKI,powiat tomaszowski
0661,06,BIAŁA PODLASKA,POWIAT BIAŁA PODLASKA,powiat Biała Podlaska
0619,06,WŁODAWSKI,POWIAT WŁODAWSKI,powiat włodawski
0620,06,ZAMOJSKI,POWIAT ZAMOJSKI,powiat zamojski
0663,06,LUBLIN,POWIAT LUBLIN,powiat Lublin
0662,06,CHEŁM,POWIAT CHEŁM,powiat Chełm
0664,06,ZAMOŚĆ,POWIAT ZAMOŚĆ,powiat Zamość
1202,12,BRZESKI,POWIAT BRZESKI,powiat brzeski
1201,12,BOCHEŃSKI,POWIAT BOCHEŃSKI,powiat bocheński
1203,12,CHRZANOWSKI,POWIAT CHRZANOWSKI,powiat chrzanowski
1204,12,DĄBROWSKI,POWIAT DĄBROWSKI,powiat dąbrowski
1205,12,GORLICKI,POWIAT GORLICKI,powiat gorlicki
1206,12,KRAKOWSKI,POWIAT KRAKOWSKI,powiat krakowski
1207,12,LIMANOWSKI,POWIAT LIMANOWSKI,powiat limanowski
1208,12,MIECHOWSKI,POWIAT MIECHOWSKI,powiat miechowski
1209,12,MYŚLENICKI,POWIAT MYŚLENICKI,powiat myślenicki
1210,12,NOWOSĄDECKI,POWIAT NOWOSĄDECKI,powiat nowosądecki
1211,12,NOWOTARSKI,POWIAT NOWOTARSKI,powiat nowotarski
1212,12,OLKUSKI,POWIAT OLKUSKI,powiat olkuski
1213,12,OŚWIĘCIMSKI,POWIAT OŚWIĘCIMSKI,powiat oświęcimski
1214,12,PROSZOWICKI,POWIAT PROSZOWICKI,powiat proszowicki
1215,12,SUSKI,POWIAT SUSKI,powiat suski
1216,12,TARNOWSKI,POWIAT TARNOWSKI,powiat tarnowski
1217,12,TATRZAŃSKI,POWIAT TATRZAŃSKI,powiat tatrzański
1218,12,WADOWICKI,POWIAT WADOWICKI,powiat wadowicki
1263,12,TARNÓW,POWIAT TARNÓW,powiat Tarnów
1219,12,WIELICKI,POWIAT WIELICKI,powiat wielicki
1261,12,KRAKÓW,POWIAT KRAKÓW,powiat Kraków
1262,12,NOWY SĄCZ,POWIAT NOWY SĄCZ,powiat Nowy Sącz
1062,10,PIOTRKÓW TRYBUNALSKI,POWIAT PIOTRKÓW TRYBUNALSKI,powiat Piotrków Trybunalski
1063,10,SKIERNIEWICE,POWIAT SKIERNIEWICE,powiat Skierniewice
1001,10,BEŁCHATOWSKI,POWIAT BEŁCHATOWSKI,powiat bełchatowski
1002,10,KUTNOWSKI,POWIAT KUTNOWSKI,powiat kutnowski
1003,10,ŁASKI,POWIAT ŁASKI,powiat łaski
1004,10,ŁĘCZYCKI,POWIAT ŁĘCZYCKI,powiat łęczycki
1005,10,ŁOWICKI,POWIAT ŁOWICKI,powiat łowicki
1006,10,ŁÓDZKI WSCHODNI,POWIAT ŁÓDZKI WSCHODNI,powiat łódzki wschodni
1007,10,OPOCZYŃSKI,POWIAT OPOCZYŃSKI,powiat opoczyński
1008,10,PABIANICKI,POWIAT PABIANICKI,powiat pabianicki
1009,10,PAJĘCZAŃSKI,POWIAT PAJĘCZAŃSKI,powiat pajęczański
1010,10,PIOTRKOWSKI,POWIAT PIOTRKOWSKI,powiat piotrkowski
1011,10,PODDĘBICKI,POWIAT PODDĘBICKI,powiat poddębicki
1012,10,RADOMSZCZAŃSKI,POWIAT RADOMSZCZAŃSKI,powiat radomszczański
1013,10,RAWSKI,POWIAT RAWSKI,powiat rawski
1014,10,SIERADZKI,POWIAT SIERADZKI,powiat sieradzki
1015,10,SKIERNIEWICKI,POWIAT SKIERNIEWICKI,powiat skierniewicki
1016,10,TOMASZOWSKI,POWIAT TOMASZOWSKI,powiat tomaszowski
1017,10,WIELUŃSKI,POWIAT WIELUŃSKI,powiat wieluński
1019,10,ZDUŃSKOWOLSKI,POWIAT ZDUŃSKOWOLSKI,powiat zduńskowolski
1018,10,WIERUSZOWSKI,POWIAT WIERUSZOWSKI,powiat wieruszowski
1020,10,ZGIERSKI,POWIAT ZGIERSKI,powiat zgierski
1021,10,BRZEZIŃSKI,POWIAT BRZEZIŃSKI,powiat brzeziński
1061,10,ŁÓDŹ,POWIAT ŁÓDŹ,powiat Łódź
0811,08,ŻARSKI,POWIAT ŻARSKI,powiat żarski
0812,08,WSCHOWSKI,POWIAT WSCHOWSKI,powiat wschowski
0862,08,ZIELONA GÓRA,POWIAT ZIELONA GÓRA,powiat Zielona Góra
0861,08,GORZÓW WIELKOPOLSKI,POWIAT GORZÓW WIELKOPOLSKI,powiat Gorzów Wielkopolski
0801,08,GORZOWSKI,POWIAT GORZOWSKI,powiat gorzowski
0802,08,KROŚNIEŃSKI,POWIAT KROŚNIEŃSKI,powiat krośnieński
0803,08,MIĘDZYRZECKI,POWIAT MIĘDZYRZECKI,powiat międzyrzecki
0804,08,NOWOSOLSKI,POWIAT NOWOSOLSKI,powiat nowosolski
0805,08,SŁUBICKI,POWIAT SŁUBICKI,powiat słubicki
0806,08,STRZELECKO-DREZDENECKI,POWIAT STRZELECKO-DREZDENECKI,powiat strzelecko-drezdenecki
0807,08,SULĘCIŃSKI,POWIAT SULĘCIŃSKI,powiat sulęciński
0808,08,ŚWIEBODZIŃSKI,POWIAT ŚWIEBODZIŃSKI,powiat świebodziński
0809,08,ZIELONOGÓRSKI,POWIAT ZIELONOGÓRSKI,powiat zielonogórski
0810,08,ŻAGAŃSKI,POWIAT ŻAGAŃSKI,powiat żagański
1802,18,BRZOZOWSKI,POWIAT BRZOZOWSKI,powiat brzozowski
1801,18,BIESZCZADZKI,POWIAT BIESZCZADZKI,powiat bieszczadzki
1803,18,DĘBICKI,POWIAT DĘBICKI,powiat dębicki
1804,18,JAROSŁAWSKI,POWIAT JAROSŁAWSKI,powiat jarosławski
1806,18,KOLBUSZOWSKI,POWIAT KOLBUSZOWSKI,powiat kolbuszowski
1805,18,JASIELSKI,POWIAT JASIELSKI,powiat jasielski
1807,18,KROŚNIEŃSKI,POWIAT KROŚNIEŃSKI,powiat krośnieński
1808,18,LEŻAJSKI,POWIAT LEŻAJSKI,powiat leżajski
1809,18,LUBACZOWSKI,POWIAT LUBACZOWSKI,powiat lubaczowski
1810,18,ŁAŃCUCKI,POWIAT ŁAŃCUCKI,powiat łańcucki
1811,18,MIELECKI,POWIAT MIELECKI,powiat mielecki
1411,14,MAKOWSKI,POWIAT MAKOWSKI,powiat makowski
1601,16,BRZESKI,POWIAT BRZESKI,powiat brzeski
3001,30,CHODZIESKI,POWIAT CHODZIESKI,powiat chodzieski
3018,30,OSTRZESZOWSKI,POWIAT OSTRZESZOWSKI,powiat ostrzeszowski
1463,14,RADOM,POWIAT RADOM,powiat Radom
1438,14,ŻYRARDOWSKI,POWIAT ŻYRARDOWSKI,powiat żyrardowski
1461,14,OSTROŁĘKA,POWIAT OSTROŁĘKA,powiat Ostrołęka
1465,14,WARSZAWA,POWIAT WARSZAWA,powiat Warszawa
3015,30,NOWOTOMYSKI,POWIAT NOWOTOMYSKI,powiat nowotomyski
3016,30,OBORNICKI,POWIAT OBORNICKI,powiat obornicki
1607,16,NYSKI,POWIAT NYSKI,powiat nyski
1608,16,OLESKI,POWIAT OLESKI,powiat oleski
3013,30,LESZCZYŃSKI,POWIAT LESZCZYŃSKI,powiat leszczyński
3014,30,MIĘDZYCHODZKI,POWIAT MIĘDZYCHODZKI,powiat międzychodzki
1611,16,STRZELECKI,POWIAT STRZELECKI,powiat strzelecki
1661,16,OPOLE,POWIAT OPOLE,powiat Opole
1602,16,GŁUBCZYCKI,POWIAT GŁUBCZYCKI,powiat głubczycki
1605,16,KRAPKOWICKI,POWIAT KRAPKOWICKI,powiat krapkowicki
3019,30,PILSKI,POWIAT PILSKI,powiat pilski
1464,14,SIEDLCE,POWIAT SIEDLCE,powiat Siedlce
1606,16,NAMYSŁOWSKI,POWIAT NAMYSŁOWSKI,powiat namysłowski
3002,30,CZARNKOWSKO-TRZCIANECKI,POWIAT CZARNKOWSKO-TRZCIANECKI,powiat czarnkowsko-trzcianecki
3017,30,OSTROWSKI,POWIAT OSTROWSKI,powiat ostrowski
1609,16,OPOLSKI,POWIAT OPOLSKI,powiat opolski
1610,16,PRUDNICKI,POWIAT PRUDNICKI,powiat prudnicki
1603,16,KĘDZIERZYŃSKO-KOZIELSKI,POWIAT KĘDZIERZYŃSKO-KOZIELSKI,powiat kędzierzyńsko-kozielski
1604,16,KLUCZBORSKI,POWIAT KLUCZBORSKI,powiat kluczborski
1462,14,PŁOCK,POWIAT PŁOCK,powiat Płock
2009,20,SEJNEŃSKI,POWIAT SEJNEŃSKI,powiat sejneński
3031,30,ZŁOTOWSKI,POWIAT ZŁOTOWSKI,powiat złotowski
3012,30,KROTOSZYŃSKI,POWIAT KROTOSZYŃSKI,powiat krotoszyński
2013,20,WYSOKOMAZOWIECKI,POWIAT WYSOKOMAZOWIECKI,powiat wysokomazowiecki
2601,26,BUSKI,POWIAT BUSKI,powiat buski
3020,30,PLESZEWSKI,POWIAT PLESZEWSKI,powiat pleszewski
3025,30,ŚREDZKI,POWIAT ŚREDZKI,powiat średzki
3026,30,ŚREMSKI,POWIAT ŚREMSKI,powiat śremski
3061,30,KALISZ,POWIAT KALISZ,powiat Kalisz
3062,30,KONIN,POWIAT KONIN,powiat Konin
2602,26,JĘDRZEJOWSKI,POWIAT JĘDRZEJOWSKI,powiat jędrzejowski
3004,30,GOSTYŃSKI,POWIAT GOSTYŃSKI,powiat gostyński
2007,20,ŁOMŻYŃSKI,POWIAT ŁOMŻYŃSKI,powiat łomżyński
3063,30,LESZNO,POWIAT LESZNO,powiat Leszno
3008,30,KĘPIŃSKI,POWIAT KĘPIŃSKI,powiat kępiński
3009,30,KOLSKI,POWIAT KOLSKI,powiat kolski
2001,20,AUGUSTOWSKI,POWIAT AUGUSTOWSKI,powiat augustowski
2002,20,BIAŁOSTOCKI,POWIAT BIAŁOSTOCKI,powiat białostocki
2008,20,MONIECKI,POWIAT MONIECKI,powiat moniecki
2603,26,KAZIMIERSKI,POWIAT KAZIMIERSKI,powiat kazimierski
2604,26,KIELECKI,POWIAT KIELECKI,powiat kielecki
2063,20,SUWAŁKI,POWIAT SUWAŁKI,powiat Suwałki
2011,20,SOKÓLSKI,POWIAT SOKÓLSKI,powiat sokólski
3010,30,KONIŃSKI,POWIAT KONIŃSKI,powiat koniński
3011,30,KOŚCIAŃSKI,POWIAT KOŚCIAŃSKI,powiat kościański
2014,20,ZAMBROWSKI,POWIAT ZAMBROWSKI,powiat zambrowski
2061,20,BIAŁYSTOK,POWIAT BIAŁYSTOK,powiat Białystok
3027,30,TURECKI,POWIAT TURECKI,powiat turecki
3028,30,WĄGROWIECKI,POWIAT WĄGROWIECKI,powiat wągrowiecki
2003,20,BIELSKI,POWIAT BIELSKI,powiat bielski
2062,20,ŁOMŻA,POWIAT ŁOMŻA,powiat Łomża
2004,20,GRAJEWSKI,POWIAT GRAJEWSKI,powiat grajewski
2012,20,SUWALSKI,POWIAT SUWALSKI,powiat suwalski
3021,30,POZNAŃSKI,POWIAT POZNAŃSKI,powiat poznański
3005,30,GRODZISKI,POWIAT GRODZISKI,powiat grodziski
3029,30,WOLSZTYŃSKI,POWIAT WOLSZTYŃSKI,powiat wolsztyński
3030,30,WRZESIŃSKI,POWIAT WRZESIŃSKI,powiat wrzesiński
3022,30,RAWICKI,POWIAT RAWICKI,powiat rawicki
3024,30,SZAMOTULSKI,POWIAT SZAMOTULSKI,powiat szamotulski
3023,30,SŁUPECKI,POWIAT SŁUPECKI,powiat słupecki
3064,30,POZNAŃ,POWIAT POZNAŃ,powiat Poznań
3003,30,GNIEŹNIEŃSKI,POWIAT GNIEŹNIEŃSKI,powiat gnieźnieński
3006,30,JAROCIŃSKI,POWIAT JAROCIŃSKI,powiat jarociński
3007,30,KALISKI,POWIAT KALISKI,powiat kaliski
2005,20,HAJNOWSKI,POWIAT HAJNOWSKI,powiat hajnowski
2010,20,SIEMIATYCKI,POWIAT SIEMIATYCKI,powiat siemiatycki
2006,20,KOLNEŃSKI,POWIAT KOLNEŃSKI,powiat kolneński
2204,22,GDAŃSKI,POWIAT GDAŃSKI,powiat gdański
2208,22,LĘBORSKI,POWIAT LĘBORSKI,powiat lęborski
2206,22,KOŚCIERSKI,POWIAT KOŚCIERSKI,powiat kościerski
2613,26,WŁOSZCZOWSKI,POWIAT WŁOSZCZOWSKI,powiat włoszczowski
2211,22,PUCKI,POWIAT PUCKI,powiat pucki
2212,22,SŁUPSKI,POWIAT SŁUPSKI,powiat słupski
2661,26,KIELCE,POWIAT KIELCE,powiat Kielce
2611,26,STARACHOWICKI,POWIAT STARACHOWICKI,powiat starachowicki
2612,26,STASZOWSKI,POWIAT STASZOWSKI,powiat staszowski
2605,26,KONECKI,POWIAT KONECKI,powiat konecki
2264,22,SOPOT,POWIAT SOPOT,powiat Sopot
2202,22,CHOJNICKI,POWIAT CHOJNICKI,powiat chojnicki
2203,22,CZŁUCHOWSKI,POWIAT CZŁUCHOWSKI,powiat człuchowski
2606,26,OPATOWSKI,POWIAT OPATOWSKI,powiat opatowski
2607,26,OSTROWIECKI,POWIAT OSTROWIECKI,powiat ostrowiecki
2263,22,SŁUPSK,POWIAT SŁUPSK,powiat Słupsk
2213,22,STAROGARDZKI,POWIAT STAROGARDZKI,powiat starogardzki
2610,26,SKARŻYSKI,POWIAT SKARŻYSKI,powiat skarżyski
2205,22,KARTUSKI,POWIAT KARTUSKI,powiat kartuski
2209,22,MALBORSKI,POWIAT MALBORSKI,powiat malborski
2210,22,NOWODWORSKI,POWIAT NOWODWORSKI,powiat nowodworski
2608,26,PIŃCZOWSKI,POWIAT PIŃCZOWSKI,powiat pińczowski
2609,26,SANDOMIERSKI,POWIAT SANDOMIERSKI,powiat sandomierski
2201,22,BYTOWSKI,POWIAT BYTOWSKI,powiat bytowski
3215,32,SZCZECINECKI,POWIAT SZCZECINECKI,powiat szczecinecki
3216,32,ŚWIDWIŃSKI,POWIAT ŚWIDWIŃSKI,powiat świdwiński
0205,02,JAWORSKI,POWIAT JAWORSKI,powiat jaworski
0207,02,KAMIENNOGÓRSKI,POWIAT KAMIENNOGÓRSKI,powiat kamiennogórski
3214,32,STARGARDZKI,POWIAT STARGARDZKI,powiat stargardzki
0264,02,WROCŁAW,POWIAT WROCŁAW,powiat Wrocław
3209,32,KOSZALIŃSKI,POWIAT KOSZALIŃSKI,powiat koszaliński
2404,24,CZĘSTOCHOWSKI,POWIAT CZĘSTOCHOWSKI,powiat częstochowski
2804,28,ELBLĄSKI,POWIAT ELBLĄSKI,powiat elbląski
2805,28,EŁCKI,POWIAT EŁCKI,powiat ełcki
2806,28,GIŻYCKI,POWIAT GIŻYCKI,powiat giżycki
2807,28,IŁAWSKI,POWIAT IŁAWSKI,powiat iławski
2808,28,KĘTRZYŃSKI,POWIAT KĘTRZYŃSKI,powiat kętrzyński
2809,28,LIDZBARSKI,POWIAT LIDZBARSKI,powiat lidzbarski
2810,28,MRĄGOWSKI,POWIAT MRĄGOWSKI,powiat mrągowski
2811,28,NIDZICKI,POWIAT NIDZICKI,powiat nidzicki
2812,28,NOWOMIEJSKI,POWIAT NOWOMIEJSKI,powiat nowomiejski
2813,28,OLECKI,POWIAT OLECKI,powiat olecki
2814,28,OLSZTYŃSKI,POWIAT OLSZTYŃSKI,powiat olsztyński
2816,28,PISKI,POWIAT PISKI,powiat piski
2815,28,OSTRÓDZKI,POWIAT OSTRÓDZKI,powiat ostródzki
2817,28,SZCZYCIEŃSKI,POWIAT SZCZYCIEŃSKI,powiat szczycieński
0261,02,JELENIA GÓRA,POWIAT JELENIA GÓRA,powiat Jelenia Góra
3217,32,WAŁECKI,POWIAT WAŁECKI,powiat wałecki
3218,32,ŁOBESKI,POWIAT ŁOBESKI,powiat łobeski
3263,32,ŚWINOUJŚCIE,POWIAT ŚWINOUJŚCIE,powiat Świnoujście
0202,02,DZIERŻONIOWSKI,POWIAT DZIERŻONIOWSKI,powiat dzierżoniowski
0203,02,GŁOGOWSKI,POWIAT GŁOGOWSKI,powiat głogowski
3212,32,PYRZYCKI,POWIAT PYRZYCKI,powiat pyrzycki
2214,22,TCZEWSKI,POWIAT TCZEWSKI,powiat tczewski
3213,32,SŁAWIEŃSKI,POWIAT SŁAWIEŃSKI,powiat sławieński
0225,02,ZGORZELECKI,POWIAT ZGORZELECKI,powiat zgorzelecki
2474,24,SIEMIANOWICE ŚLĄSKIE,POWIAT SIEMIANOWICE ŚLĄSKIE,powiat Siemianowice Śląskie
2476,24,ŚWIĘTOCHŁOWICE,POWIAT ŚWIĘTOCHŁOWICE,powiat Świętochłowice
2477,24,TYCHY,POWIAT TYCHY,powiat Tychy
2478,24,ZABRZE,POWIAT ZABRZE,powiat Zabrze
2479,24,ŻORY,POWIAT ŻORY,powiat Żory
2402,24,BIELSKI,POWIAT BIELSKI,powiat bielski
2401,24,BĘDZIŃSKI,POWIAT BĘDZIŃSKI,powiat będziński
2403,24,CIESZYŃSKI,POWIAT CIESZYŃSKI,powiat cieszyński
2472,24,RUDA ŚLĄSKA,POWIAT RUDA ŚLĄSKA,powiat Ruda Śląska
2818,28,GOŁDAPSKI,POWIAT GOŁDAPSKI,powiat gołdapski
2819,28,WĘGORZEWSKI,POWIAT WĘGORZEWSKI,powiat węgorzewski
2861,28,ELBLĄG,POWIAT ELBLĄG,powiat Elbląg
2862,28,OLSZTYN,POWIAT OLSZTYN,powiat Olsztyn
2801,28,BARTOSZYCKI,POWIAT BARTOSZYCKI,powiat bartoszycki
2802,28,BRANIEWSKI,POWIAT BRANIEWSKI,powiat braniewski
2803,28,DZIAŁDOWSKI,POWIAT DZIAŁDOWSKI,powiat działdowski
3201,32,BIAŁOGARDZKI,POWIAT BIAŁOGARDZKI,powiat białogardzki
3202,32,CHOSZCZEŃSKI,POWIAT CHOSZCZEŃSKI,powiat choszczeński
3204,32,GOLENIOWSKI,POWIAT GOLENIOWSKI,powiat goleniowski
3203,32,DRAWSKI,POWIAT DRAWSKI,powiat drawski
3205,32,GRYFICKI,POWIAT GRYFICKI,powiat gryficki
3207,32,KAMIEŃSKI,POWIAT KAMIEŃSKI,powiat kamieński
3206,32,GRYFIŃSKI,POWIAT GRYFIŃSKI,powiat gryfiński
3208,32,KOŁOBRZESKI,POWIAT KOŁOBRZESKI,powiat kołobrzeski
3261,32,KOSZALIN,POWIAT KOSZALIN,powiat Koszalin
3262,32,SZCZECIN,POWIAT SZCZECIN,powiat Szczecin
0204,02,GÓROWSKI,POWIAT GÓROWSKI,powiat górowski
2215,22,WEJHEROWSKI,POWIAT WEJHEROWSKI,powiat wejherowski
2216,22,SZTUMSKI,POWIAT SZTUMSKI,powiat sztumski
2261,22,GDAŃSK,POWIAT GDAŃSK,powiat Gdańsk
2262,22,GDYNIA,POWIAT GDYNIA,powiat Gdynia
2207,22,KWIDZYŃSKI,POWIAT KWIDZYŃSKI,powiat kwidzyński
2475,24,SOSNOWIEC,POWIAT SOSNOWIEC,powiat Sosnowiec
2406,24,KŁOBUCKI,POWIAT KŁOBUCKI,powiat kłobucki
2405,24,GLIWICKI,POWIAT GLIWICKI,powiat gliwicki
2407,24,LUBLINIECKI,POWIAT LUBLINIECKI,powiat lubliniecki
2408,24,MIKOŁOWSKI,POWIAT MIKOŁOWSKI,powiat mikołowski
2409,24,MYSZKOWSKI,POWIAT MYSZKOWSKI,powiat myszkowski
2410,24,PSZCZYŃSKI,POWIAT PSZCZYŃSKI,powiat pszczyński
2411,24,RACIBORSKI,POWIAT RACIBORSKI,powiat raciborski
2412,24,RYBNICKI,POWIAT RYBNICKI,powiat rybnicki
2413,24,TARNOGÓRSKI,POWIAT TARNOGÓRSKI,powiat tarnogórski
2414,24,BIERUŃSKO-LĘDZIŃSKI,POWIAT BIERUŃSKO-LĘDZIŃSKI,powiat bieruńsko-lędziński
2415,24,WODZISŁAWSKI,POWIAT WODZISŁAWSKI,powiat wodzisławski
2416,24,ZAWIERCIAŃSKI,POWIAT ZAWIERCIAŃSKI,powiat zawierciański
2417,24,ŻYWIECKI,POWIAT ŻYWIECKI,powiat żywiecki
2467,24,JASTRZĘBIE-ZDRÓJ,POWIAT JASTRZĘBIE-ZDRÓJ,powiat Jastrzębie-Zdrój
2463,24,CHORZÓW,POWIAT CHORZÓW,powiat Chorzów
2461,24,BIELSKO-BIAŁA,POWIAT BIELSKO-BIAŁA,powiat Bielsko-Biała
2462,24,BYTOM,POWIAT BYTOM,powiat Bytom
2465,24,DĄBROWA GÓRNICZA,POWIAT DĄBROWA GÓRNICZA,powiat Dąbrowa Górnicza
2464,24,CZĘSTOCHOWA,POWIAT CZĘSTOCHOWA,powiat Częstochowa
2466,24,GLIWICE,POWIAT GLIWICE,powiat Gliwice
2471,24,PIEKARY ŚLĄSKIE,POWIAT PIEKARY ŚLĄSKIE,powiat Piekary Śląskie
2469,24,KATOWICE,POWIAT KATOWICE,powiat Katowice
2468,24,JAWORZNO,POWIAT JAWORZNO,powiat Jaworzno
2470,24,MYSŁOWICE,POWIAT MYSŁOWICE,powiat Mysłowice
2473,24,RYBNIK,POWIAT RYBNIK,powiat Rybnik
3210,32,MYŚLIBORSKI,POWIAT MYŚLIBORSKI,powiat myśliborski
3211,32,POLICKI,POWIAT POLICKI,powiat policki
0226,02,ZŁOTORYJSKI,POWIAT ZŁOTORYJSKI,powiat złotoryjski
0262,02,LEGNICA,POWIAT LEGNICA,powiat Legnica
0206,02,JELENIOGÓRSKI,POWIAT JELENIOGÓRSKI,powiat jeleniogórski
0214,02,OLEŚNICKI,POWIAT OLEŚNICKI,powiat oleśnicki
0201,02,BOLESŁAWIECKI,POWIAT BOLESŁAWIECKI,powiat bolesławiecki
0208,02,KŁODZKI,POWIAT KŁODZKI,powiat kłodzki
0405,04,GOLUBSKO-DOBRZYŃSKI,POWIAT GOLUBSKO-DOBRZYŃSKI,powiat golubsko-dobrzyński
0210,02,LUBAŃSKI,POWIAT LUBAŃSKI,powiat lubański
0220,02,TRZEBNICKI,POWIAT TRZEBNICKI,powiat trzebnicki
0265,02,WAŁBRZYCH,POWIAT WAŁBRZYCH,powiat Wałbrzych
0406,04,GRUDZIĄDZKI,POWIAT GRUDZIĄDZKI,powiat grudziądzki
0407,04,INOWROCŁAWSKI,POWIAT INOWROCŁAWSKI,powiat inowrocławski
0222,02,WOŁOWSKI,POWIAT WOŁOWSKI,powiat wołowski
0401,04,ALEKSANDROWSKI,POWIAT ALEKSANDROWSKI,powiat aleksandrowski
0223,02,WROCŁAWSKI,POWIAT WROCŁAWSKI,powiat wrocławski
0224,02,ZĄBKOWICKI,POWIAT ZĄBKOWICKI,powiat ząbkowicki
0402,04,BRODNICKI,POWIAT BRODNICKI,powiat brodnicki
0403,04,BYDGOSKI,POWIAT BYDGOSKI,powiat bydgoski
0215,02,OŁAWSKI,POWIAT OŁAWSKI,powiat oławski
0216,02,POLKOWICKI,POWIAT POLKOWICKI,powiat polkowicki
0218,02,ŚREDZKI,POWIAT ŚREDZKI,powiat średzki
0213,02,MILICKI,POWIAT MILICKI,powiat milicki
0217,02,STRZELIŃSKI,POWIAT STRZELIŃSKI,powiat strzeliński
0219,02,ŚWIDNICKI,POWIAT ŚWIDNICKI,powiat świdnicki
0209,02,LEGNICKI,POWIAT LEGNICKI,powiat legnicki
0211,02,LUBIŃSKI,POWIAT LUBIŃSKI,powiat lubiński
0212,02,LWÓWECKI,POWIAT LWÓWECKI,powiat lwówecki
0408,04,LIPNOWSKI,POWIAT LIPNOWSKI,powiat lipnowski
0417,04,WĄBRZESKI,POWIAT WĄBRZESKI,powiat wąbrzeski
0413,04,SĘPOLEŃSKI,POWIAT SĘPOLEŃSKI,powiat sępoleński
0418,04,WŁOCŁAWSKI,POWIAT WŁOCŁAWSKI,powiat włocławski
0414,04,ŚWIECKI,POWIAT ŚWIECKI,powiat świecki
0415,04,TORUŃSKI,POWIAT TORUŃSKI,powiat toruński
0419,04,ŻNIŃSKI,POWIAT ŻNIŃSKI,powiat żniński
0461,04,BYDGOSZCZ,POWIAT BYDGOSZCZ,powiat Bydgoszcz
0409,04,MOGILEŃSKI,POWIAT MOGILEŃSKI,powiat mogileński
0462,04,GRUDZIĄDZ,POWIAT GRUDZIĄDZ,powiat Grudziądz
0463,04,TORUŃ,POWIAT TORUŃ,powiat Toruń
0464,04,WŁOCŁAWEK,POWIAT WŁOCŁAWEK,powiat Włocławek
0411,04,RADZIEJOWSKI,POWIAT RADZIEJOWSKI,powiat radziejowski
0410,04,NAKIELSKI,POWIAT NAKIELSKI,powiat nakielski
0412,04,RYPIŃSKI,POWIAT RYPIŃSKI,powiat rypiński
0416,04,TUCHOLSKI,POWIAT TUCHOLSKI,powiat tucholski
0404,04,CHEŁMIŃSKI,POWIAT CHEŁMIŃSKI,powiat chełmiński
0221,02,WAŁBRZYSKI,POWIAT WAŁBRZYSKI,powiat wałbrzyski
