32620114806,3262011,DĄBIE 806,4806
32620114706,3262011,DĄBIE 706,4706
32620114506,3262011,DĄBIE 506,4506
32620114317,3262011,DĄBIE 317,4317
32620114217,3262011,DĄBIE 217,4217
32620114209,3262011,DĄBIE 209,4209
32620114208,3262011,DĄBIE 208,4208
32620114198,3262011,DĄBIE 198,4198
32620114194,3262011,DĄBIE 194,4194
32620114191,3262011,DĄBIE 191,4191
32620114189,3262011,DĄBIE 189,4189
32620114183,3262011,DĄBIE 183,4183
32620114181,3262011,DĄBIE 181,4181
32620114177,3262011,DĄBIE 177,4177
32620114174,3262011,DĄBIE 174,4174
32620114168,3262011,DĄBIE 168,4168
32620114166,3262011,DĄBIE 166,4166
32620114165,3262011,DĄBIE 165,4165
32620114163,3262011,DĄBIE 163,4163
32620114162,3262011,DĄBIE 162,4162
32620114161,3262011,DĄBIE 161,4161
32620114155,3262011,DĄBIE 155,4155
32620114154,3262011,DĄBIE 154,4154
32620114150,3262011,DĄBIE 150,4150
32620114146,3262011,DĄBIE 146,4146
32620114145,3262011,DĄBIE 145,4145
32620114143,3262011,DĄBIE 143,4143
32620114133,3262011,DĄBIE 133,4133
32620114130,3262011,DĄBIE 130,4130
32620114127,3262011,DĄBIE 127,4127
32620114126,3262011,DĄBIE 126,4126
32620114125,3262011,DĄBIE 125,4125
32620114122,3262011,DĄBIE 122,4122
32620114121,3262011,DĄBIE 121,4121
32620114117,3262011,DĄBIE 117,4117
32620114114,3262011,DĄBIE 114,4114
32620114113,3262011,DĄBIE 113,4113
32620114110,3262011,DĄBIE 110,4110
32620114109,3262011,DĄBIE 109,4109
32620114108,3262011,DĄBIE 108,4108
32620114107,3262011,DĄBIE 107,4107
32620114105,3262011,DĄBIE 105,4105
32620114086,3262011,DĄBIE 86,4086
32620114085,3262011,DĄBIE 85,4085
32620114081,3262011,DĄBIE 81,4081
32620114079,3262011,DĄBIE 79,4079
32620114076,3262011,DĄBIE 76,4076
32620114073,3262011,DĄBIE 73,4073
32620114071,3262011,DĄBIE 71,4071
32620114064,3262011,DĄBIE 64,4064
32620114063,3262011,DĄBIE 63,4063
32620114061,3262011,DĄBIE 61,4061
32620114060,3262011,DĄBIE 60,4060
32620114052,3262011,DĄBIE 52,4052
32620114051,3262011,DĄBIE 51,4051
32620114049,3262011,DĄBIE 49,4049
32620114048,3262011,DĄBIE 48,4048
32620114047,3262011,DĄBIE 47,4047
32620114046,3262011,DĄBIE 46,4046
32620114045,3262011,DĄBIE 45,4045
32620114044,3262011,DĄBIE 44,4044
32620114043,3262011,DĄBIE 43,4043
32620114039,3262011,DĄBIE 39,4039
32620114031,3262011,DĄBIE 31,4031
32620114029,3262011,DĄBIE 29,4029
32620114028,3262011,DĄBIE 28,4028
32620114027,3262011,DĄBIE 27,4027
32620114026,3262011,DĄBIE 26,4026
32620114025,3262011,DĄBIE 25,4025
32620114022,3262011,DĄBIE 22,4022
32620114018,3262011,DĄBIE 18,4018
32620114014,3262011,DĄBIE 14,4014
32620114006,3262011,DĄBIE 6,4006
32620114005,3262011,DĄBIE 5,4005
32620114004,3262011,DĄBIE 4,4004
32620114003,3262011,DĄBIE 3,4003
32620114001,3262011,DĄBIE 1,4001
32620113254,3262011,NAD ODRĄ 254,3254
32620113207,3262011,NAD ODRĄ 207,3207
32620113205,3262011,NAD ODRĄ 205,3205
32620113103,3262011,NAD ODRĄ 103,3103
32620113102,3262011,NAD ODRĄ 102,3102
32620113097,3262011,NAD ODRĄ 97,3097
32620113096,3262011,NAD ODRĄ 96,3096
32620113092,3262011,NAD ODRĄ 92,3092
32620113091,3262011,NAD ODRĄ 91,3091
32620113090,3262011,NAD ODRĄ 90,3090
32620113089,3262011,NAD ODRĄ 89,3089
32620113084,3262011,NAD ODRĄ 84,3084
32620113083,3262011,NAD ODRĄ 83,3083
32620113082,3262011,NAD ODRĄ 82,3082
32620113081,3262011,NAD ODRĄ 81,3081
32620113077,3262011,NAD ODRĄ 77,3077
32620113073,3262011,NAD ODRĄ 73,3073
32620113069,3262011,NAD ODRĄ 69,3069
32620113066,3262011,NAD ODRĄ 66,3066
32620113061,3262011,NAD ODRĄ 61,3061
32620113060,3262011,NAD ODRĄ 60,3060
32620113057,3262011,NAD ODRĄ 57,3057
32620113056,3262011,NAD ODRĄ 56,3056
32620113050,3262011,NAD ODRĄ 50,3050
32620113045,3262011,NAD ODRĄ 45,3045
32620113043,3262011,NAD ODRĄ 43,3043
32620113041,3262011,NAD ODRĄ 41,3041
32620113037,3262011,NAD ODRĄ 37,3037
32620113036,3262011,NAD ODRĄ 36,3036
32620113033,3262011,NAD ODRĄ 33,3033
32620113030,3262011,NAD ODRĄ 30,3030
32620113027,3262011,NAD ODRĄ 27,3027
32620113023,3262011,NAD ODRĄ 23,3023
32620113021,3262011,NAD ODRĄ 21,3021
32620113020,3262011,NAD ODRĄ 20,3020
32620113019,3262011,NAD ODRĄ 19,3019
32620113018,3262011,NAD ODRĄ 18,3018
32620113014,3262011,NAD ODRĄ 14,3014
32620113013,3262011,NAD ODRĄ 13,3013
32620113011,3262011,NAD ODRĄ 11,3011
32620113008,3262011,NAD ODRĄ 8,3008
32620113004,3262011,NAD ODRĄ 4,3004
32620113003,3262011,NAD ODRĄ 3,3003
32620112261,3262011,POGODNO 261,2261
32620112255,3262011,POGODNO 255,2255
04640112190,0464011,MICHELIN KM 19,2190
32620112157,3262011,POGODNO 157,2157
32620112156,3262011,POGODNO 156,2156
32620112151,3262011,POGODNO 151,2151
32620112142,3262011,POGODNO 142,2142
32620112141,3262011,POGODNO 141,2141
32620112138,3262011,POGODNO 138,2138
04640112130,0464011,MICHELIN KM 13,2130
32620112124,3262011,POGODNO 124,2124
32620112119,3262011,POGODNO 119,2119
32620112109,3262011,POGODNO 109,2109
32620112106,3262011,POGODNO 106,2106
32620112104,3262011,POGODNO 104,2104
32620112103,3262011,POGODNO 103,2103
16030522103,1603052,MIERZĘCIN,2103
32620112096,3262011,POGODNO 96,2096
32620112092,3262011,POGODNO 92,2092
32620112091,3262011,POGODNO 91,2091
32620112089,3262011,POGODNO 89,2089
32620112083,3262011,POGODNO 83,2083
32620112081,3262011,POGODNO 81,2081
04640112080,0464011,MICHELIN KM 08,2080
32620112078,3262011,POGODNO 78,2078
32620112077,3262011,POGODNO 77,2077
32620112069,3262011,POGODNO 69,2069
32620112068,3262011,POGODNO 68,2068
32620112064,3262011,POGODNO 64,2064
32620112063,3262011,POGODNO 63,2063
32620112062,3262011,POGODNO 62,2062
32620112061,3262011,POGODNO 61,2061
32620112056,3262011,POGODNO 56,2056
32620112055,3262011,POGODNO 55,2055
32620112054,3262011,POGODNO 54,2054
32620112052,3262011,POGODNO 52,2052
32620112051,3262011,POGODNO 51,2051
32620112049,3262011,POGODNO 49,2049
32620112047,3262011,POGODNO 47,2047
32620112046,3262011,POGODNO 46,2046
32620112045,3262011,POGODNO 45,2045
32620112044,3262011,POGODNO 44,2044
32620112042,3262011,POGODNO 42,2042
32620112041,3262011,POGODNO 41,2041
32620112038,3262011,POGODNO 38,2038
32620112036,3262011,POGODNO 36,2036
32620112035,3262011,POGODNO 35,2035
32620112030,3262011,POGODNO 30,2030
32620112025,3262011,POGODNO 25,2025
32620112019,3262011,POGODNO 19,2019
32620112016,3262011,POGODNO 16,2016
32620112015,3262011,POGODNO 15,2015
32620112010,3262011,POGODNO 10,2010
32620112008,3262011,POGODNO 8,2008
32620112007,3262011,POGODNO 7,2007
32620112006,3262011,POGODNO 6,2006
32620112005,3262011,POGODNO 5,2005
32620112003,3262011,POGODNO 3,2003
04640111200,0464011,WŁOCŁAWEK KM 120,1200
04640111140,0464011,WŁOCŁAWEK KM 114,1140
04640111121,0464011,WŁOCŁAWEK KM 112/1,1121
32620111112,3262011,ŚRÓDMIEŚCIE 112,1112
32620111107,3262011,ŚRÓDMIEŚCIE 107,1107
32620111105,3262011,ŚRÓDMIEŚCIE 105,1105
04640111100,0464011,WŁOCŁAWEK KM 110,1100
32620111099,3262011,ŚRÓDMIEŚCIE 99,1099
32620111096,3262011,ŚRÓDMIEŚCIE 96,1096
32620111090,3262011,ŚRÓDMIEŚCIE 90,1090
32620111088,3262011,ŚRÓDMIEŚCIE 88,1088
32620111084,3262011,ŚRÓDMIEŚCIE 84,1084
32620111083,3262011,ŚRÓDMIEŚCIE 83,1083
32620111081,3262011,ŚRÓDMIEŚCIE 81,1081
32620111068,3262011,ŚRÓDMIEŚCIE 68,1068
32620111063,3262011,ŚRÓDMIEŚCIE 63,1063
04640111060,0464011,WŁOCŁAWEK KM 106,1060
32620111059,3262011,ŚRÓDMIEŚCIE 59,1059
32620111049,3262011,ŚRÓDMIEŚCIE 49,1049
32620111045,3262011,ŚRÓDMIEŚCIE 45,1045
32620111040,3262011,ŚRÓDMIEŚCIE 40,1040
32620111039,3262011,ŚRÓDMIEŚCIE 39,1039
32620111038,3262011,ŚRÓDMIEŚCIE 38,1038
32620111036,3262011,ŚRÓDMIEŚCIE 36,1036
32620111031,3262011,ŚRÓDMIEŚCIE 31,1031
32620111028,3262011,ŚRÓDMIEŚCIE 28,1028
32620111026,3262011,ŚRÓDMIEŚCIE 26,1026
32620111023,3262011,ŚRÓDMIEŚCIE 23,1023
32620111021,3262011,ŚRÓDMIEŚCIE 21,1021
04640111020,0464011,WŁOCŁAWEK KM 102,1020
32620111017,3262011,ŚRÓDMIEŚCIE 17,1017
32620111003,3262011,ŚRÓDMIEŚCIE 3,1003
04640111000,0464011,WŁOCŁAWEK KM 100,1000
04640110980,0464011,WŁOCŁAWEK KM 98,0980
04640110971,0464011,WŁOCŁAWEK KM 97/1,0971
04640110930,0464011,WŁOCŁAWEK KM 93,0930
30240320914,3024032,SIERPÓWKO,0914
04640110880,0464011,WŁOCŁAWEK KM 88,0880
04640110840,0464011,WŁOCŁAWEK KM 84,0840
24640110828,2464011,28B,0828
04640110810,0464011,WŁOCŁAWEK KM 81,0810
04640110800,0464011,WŁOCŁAWEK KM 80,0800
22610110763,2261011,263S,0763
22610110761,2261011,261S,0761
04640110721,0464011,WŁOCŁAWEK KM 72/1,0721
04640110630,0464011,WŁOCŁAWEK KM 63,0630
04640110570,0464011,WŁOCŁAWEK KM 57,0570
22610110534,2261011,034S,0534
04640110530,0464011,WŁOCŁAWEK KM 53,0530
16010520513,1601052,LUBICZ,0513
04610110501,0461011,0501,0501
04610110494,0461011,0494,0494
04610110492,0461011,0492,0492
04640110492,0464011,WŁOCŁAWEK KM 49/2,0492
04610110489,0461011,0489,0489
04610110474,0461011,0474,0474
04610110473,0461011,0473,0473
04610110471,0461011,0471,0471
04640110470,0464011,WŁOCŁAWEK KM 47,0470
04610110468,0461011,0468,0468
04610110454,0461011,0454,0454
04610110448,0461011,0448,0448
04610110442,0461011,0442,0442
04610110435,0461011,0435,0435
04610110433,0461011,0433,0433
04640110430,0464011,WŁOCŁAWEK KM 43,0430
04610110429,0461011,0429,0429
04610110427,0461011,0427,0427
04610110425,0461011,0425,0425
04610110420,0461011,0420,0420
04610110418,0461011,0418,0418
20080720416,2008072,BUDY-DZ.KALIN.KRÓL,0416
04610110413,0461011,0413,0413
04640110410,0464011,WŁOCŁAWEK KM 41,0410
04610110409,0461011,0409,0409
12170420404,1217042,BUTORÓW 2,0404
04610110403,0461011,0403,0403
04610110402,0461011,0402,0402
04610110399,0461011,0399,0399
04610110396,0461011,0396,0396
24640110395,2464011,395,0395
04610110393,0461011,0393,0393
04610110392,0461011,0392,0392
04610110390,0461011,0390,0390
04610110387,0461011,0387,0387
04610110384,0461011,0384,0384
04610110382,0461011,0382,0382
24640110381,2464011,381,0381
24640110379,2464011,379,0379
04610110378,0461011,0378,0378
04610110371,0461011,0371,0371
24640110371,2464011,371,0371
24640110370,2464011,370,0370
04610110369,0461011,0369,0369
24640110365,2464011,365,0365
24640110364,2464011,364,0364
04610110360,0461011,0360,0360
04640110360,0464011,WŁOCŁAWEK KM 36,0360
04610110359,0461011,0359,0359
04610110357,0461011,0357,0357
04610110355,0461011,0355,0355
04610110352,0461011,0352,0352
24640110351,2464011,351,0351
04610110350,0461011,0350,0350
04640110350,0464011,WŁOCŁAWEK KM 35,0350
04610110347,0461011,0347,0347
04610110345,0461011,0345,0345
24640110345,2464011,345,0345
24640110343,2464011,343,0343
24640110341,2464011,341,0341
24640110337,2464011,337,0337
04610110334,0461011,0334,0334
24640110334,2464011,334,0334
24640110333,2464011,333,0333
04610110331,0461011,0331,0331
24640110330,2464011,330,0330
04640110330,0464011,WŁOCŁAWEK KM 33,0330
04610110329,0461011,0329,0329
24640110329,2464011,329,0329
04610110327,0461011,0327,0327
24640110327,2464011,327,0327
24640110325,2464011,325,0325
04610110320,0461011,0320,0320
12630110319,1263011,0319,0319
24640110319,2464011,319,0319
24640110318,2464011,318,0318
04610110317,0461011,0317,0317
22610110317,2261011,317S,0317
22610110316,2261011,316S,0316
04610110314,0461011,0314,0314
24640110314,2464011,314,0314
22610110313,2261011,313S,0313
22610110312,2261011,312S,0312
14640110311,1464011,311,0311
04640110310,0464011,WŁOCŁAWEK KM 31,0310
24640110304,2464011,304,0304
30140120303,3014012,BIAŁOKOSZYCE,0303
20060220302,2006022,ŚWIDRY - DOBRZYCE 200602_2.0302,0302
04610110302,0461011,0302,0302
20060220301,2006022,ŚWIDRY - DOBRZYCE,0301
04640110300,0464011,WŁOCŁAWEK KM 30,0300
04610110299,0461011,0299,0299
12630110298,1263011,0298,0298
04610110295,0461011,0295,0295
04610110294,0461011,0294,0294
24640110294,2464011,294,0294
04610110292,0461011,0292,0292
04610110290,0461011,0290,0290
24680110289,2468011,289,0289
04610110288,0461011,0288,0288
24640110287,2464011,287,0287
24640110286,2464011,286,0286
24640110284,2464011,284,0284
24680110278,2468011,278,0278
22610110278,2261011,278S,0278
04610110276,0461011,0276,0276
24640110274,2464011,274,0274
04610110272,0461011,0272,0272
24640110269,2464011,269,0269
04610110268,0461011,0268,0268
12630110266,1263011,0266,0266
04610110265,0461011,0265,0265
22610110265,2261011,265S,0265
04610110261,0461011,0261,0261
24640110260,2464011,260,0260
22610110260,2261011,260S,0260
04610110259,0461011,0259,0259
24640110259,2464011,259,0259
24640110258,2464011,258,0258
04610110257,0461011,0257,0257
04610110255,0461011,0255,0255
22610110253,2261011,253S,0253
04610110252,0461011,0252,0252
14170210250,1417021,250,0250
14170210249,1417021,249,0249
24640110248,2464011,248,0248
24640110247,2464011,247,0247
24640110246,2464011,246,0246
04610110232,0461011,0232,0232
06040220231,0604022,PODHAJCZYKI,0231
04610110229,0461011,0229,0229
14170210227,1417021,227,0227
24640110226,2464011,226,0226
04610110225,0461011,0225,0225
24640110222,2464011,222,0222
04610110221,0461011,0221,0221
22610110221,2261011,221S,0221
04640110220,0464011,WŁOCŁAWEK KM 22,0220
04610110219,0461011,0219,0219
24640110219,2464011,219,0219
14170210218,1417021,218,0218
24640110218,2464011,218,0218
04610110217,0461011,0217,0217
04610110214,0461011,0214,0214
04610110211,0461011,0211,0211
30170110208,3017011,208,0208
04610110204,0461011,0204,0204
14170210204,1417021,204,0204
14170210202,1417021,202,0202
20130620201,2013062,NOWE WIECHY,0201
24640110198,2464011,198,0198
24640110194,2464011,194,0194
14170210192,1417021,192,0192
14170210191,1417021,191,0191
04610110190,0461011,0190,0190
24640110188,2464011,188,0188
24780110186,2478011,186,0186
14640110185,1464011,185,0185
24640110185,2464011,185,0185
14170210182,1417021,182,0182
14170210181,1417021,181,0181
14170210178,1417021,178,0178
14170210177,1417021,177,0177
14170210176,1417021,176,0176
14170210172,1417021,172,0172
12170110171,1217011,171,0171
30170110171,3017011,171,0171
14170210170,1417021,170,0170
14170210169,1417021,169,0169
30170110167,3017011,167,0167
04610110166,0461011,0166,0166
12630110162,1263011,0162,0162
24640110162,2464011,162,0162
30610110162,3061011,162 KOLONIA SULISŁAWICE,0162
04610110159,0461011,0159,0159
30170110159,3017011,159,0159
30610110157,3061011,081A KALINIEC,0157
30170110156,3017011,156,0156
30610110156,3061011,065A RYPINEK,0156
24640110155,2464011,155,0155
24640110154,2464011,154,0154
24680110152,2468011,152,0152
04610110151,0461011,0151,0151
14170210151,1417021,151,0151
24680110151,2468011,151,0151
04610110147,0461011,0147,0147
04610110145,0461011,0145,0145
24680110145,2468011,145,0145
04620110144,0462011,144,0144
04640110140,0464011,WŁOCŁAWEK KM 14,0140
04620110139,0462011,139,0139
30170110139,3017011,139,0139
14170210138,1417021,138,0138
04620110136,0462011,136,0136
14170210136,1417021,136,0136
30610110134,3061011,134 MAJKÓW,0134
04620110133,0462011,133,0133
32090220133,3209022,TATÓW,0133
32150620131,3215062,WILCZE LASKI,0131
18080420131,1808042,STARE MIASTO,0131
30170110131,3017011,131,0131
14170210130,1417021,130,0130
04610110129,0461011,0129,0129
14170210129,1417021,129,0129
24640110129,2464011,129,0129
30170110129,3017011,129,0129
14170210128,1417021,128,0128
24640110128,2464011,128,0128
14640110127,1464011,127,0127
32160520126,3216052,SIDŁOWO,0126
04620110126,0462011,126,0126
32160420125,3216042,BIERNÓW,0125
04610110125,0461011,0125,0125
14640110125,1464011,125,0125
14170210123,1417021,123,0123
14170210122,1417021,122,0122
30170110122,3017011,122,0122
32150620121,3215062,WOJNOWO,0121
28620110121,2862011,OLSZTYN 121,0121
32150620119,3215062,DRAWIEŃ,0119
14640110119,1464011,119,0119
24640110119,2464011,119,0119
32150620118,3215062,ŻÓŁTNICA,0118
32160620118,3216062,ŚWIDWINEK,0118
32150620117,3215062,GWDA MAŁA,0117
32150620116,3215062,GWDA WIELKA,0116
32150620115,3215062,MARCELIN,0115
12170110115,1217011,115,0115
14170210115,1417021,115,0115
14640110115,1464011,115,0115
24640110115,2464011,115,0115
28620110115,2862011,OLSZTYN 115,0115
30610110115,3061011,115 RYPINEK,0115
24640110114,2464011,114,0114
32150620113,3215062,TUROWO,0113
32150620112,3215062,DZIKI,0112
04610110112,0461011,0112,0112
32150620111,3215062,SITNO,0111
28620110111,2862011,OLSZTYN 111,0111
32150620110,3215062,JELENINO,0110
04640110110,0464011,WŁOCŁAWEK KM 11,0110
14170210109,1417021,109,0109
24640110109,2464011,109,0109
04620110108,0462011,108,0108
30610110105,3061011,105 ZAGORZYNEK,0105
32150620104,3215062,MOSINA,0104
04620110104,0462011,104,0104
30170110104,3017011,104,0104
32150620102,3215062,DALĘCINO,0102
32150620101,3215062,PARSĘCKO,0101
04620110100,0462011,100,0100
14170210099,1417021,99,0099
30170110098,3017011,98,0098
14640110097,1464011,97,0097
12620110096,1262011,096,0096
30170110096,3017011,96,0096
32030420095,3203042,ŚMIDZIĘCINO,0095
14170210095,1417021,95,0095
14640110095,1464011,95,0095
32030520094,3203052,WIELBOKI,0094
04620110094,0462011,094,0094
24640110094,2464011,94,0094
28620110094,2862011,OLSZTYN 94,0094
32030520093,3203052,OTRZEP,0093
24640110093,2464011,93,0093
32030520092,3203052,ŚWIERCZYNA,0092
06040420092,0604042,DZIEKANÓW PGR,0092
32030520091,3203052,SOŚNICA,0091
04620110091,0462011,091,0091
04640110091,0464011,WŁOCŁAWEK KM 9/1,0091
24640110090,2464011,90,0090
14640110088,1464011,88,0088
30610110088,3061011,088 RYPINEK,0088
12620110087,1262011,087,0087
32160420086,3216042,STARE LUDZICKO,0086
04610110086,0461011,0086,0086
24640110086,2464011,86,0086
30610110086,3061011,086 RYPINEK,0086
14640110084,1464011,84,0084
32160620083,3216062,RYCERZEWKO,0083
04620110083,0462011,083,0083
30170110083,3017011,83,0083
28620110082,2862011,OLSZTYN 82,0082
30170110082,3017011,82,0082
30610110082,3061011,082 OS.ASNYKA,0082
32160620080,3216062,BIERZWNICA,0080
32160620079,3216062,BIERZWNICA PGR,0079
04610110079,0461011,0079,0079
04620110078,0462011,078,0078
04630110078,0463011,OBRĘB 78,0078
28620110078,2862011,OLSZTYN 78,0078
30610110078,3061011,078 DOBRZEC,0078
20080720078,2008072,GUGNY-DZ.GUZY,0078
32160620077,3216062,CIESZENIEWO,0077
12620110077,1262011,077,0077
04610110077,0461011,0077,0077
32160620076,3216062,KLUCZKOWO,0076
14640110076,1464011,76,0076
24640110076,2464011,76,0076
04620110075,0462011,075,0075
24640110075,2464011,75,0075
24640110074,2464011,74,0074
20080720074,2008072,GUGNY-DZ.KRYPNO WIE,0074
04610110073,0461011,0073,0073
30170110073,3017011,73,0073
20040620072,2004062,ŁAWSK PGR,0072
04620110072,0462011,072,0072
24640110072,2464011,72,0072
30170110072,3017011,72,0072
04640110072,0464011,WŁOCŁAWEK KM 7/2,0072
20040620071,2004062,ŁAWSK,0071
04620110071,0462011,071,0071
30170110071,3017011,71,0071
04640110071,0464011,WŁOCŁAWEK KM 7/1,0071
12170110070,1217011,070,0070
14170210070,1417021,70,0070
32160220070,3216022,MULITE,0070
04610110069,0461011,0069,0069
14080110069,1408011,69,0069
12620110069,1262011,069,0069
14640110069,1464011,69,0069
14080110068,1408011,68,0068
30610110068,3061011,068 CZASZKI,0068
04620110067,0462011,067,0067
14170110067,1417011,67,0067
28010320067,2801032,TAPLIKAJMY,0067
32030520066,3203052,BĘDLINO,0066
30610110066,3061011,066 RYPINEK,0066
32030520065,3203052,NOWE LASKI,0065
04610110065,0461011,0065,0065
14080110065,1408011,65,0065
14170210065,1417021,65,0065
32030520064,3203052,GARBOWO,0064
04620110064,0462011,064,0064
14170210064,1417021,64,0064
30610110064,3061011,064 RYPINEK,0064
32030520063,3203052,ŻABIN,0063
32030520062,3203052,ŻEŃSKO,0062
14121510062,1412151,62,0062
30610110062,3061011,062 RAJSKÓW,0062
32030520061,3203052,WIERZCHOWO,0061
04610110061,0461011,0061,0061
28010520060,2801052,ŻYWKOWO-GRĄDZIK,0060
32030520060,3203052,OSIEK DRAWSKI,0060
14170110060,1417011,60,0060
30610110060,3061011,060 RAJSKÓW,0060
28010520059,2801052,ŻUŁAWY,0059
32030520059,3203052,BONIN,0059
32160620059,3216062,SŁAWA,0059
14170210059,1417021,59,0059
30170110059,3017011,59,0059
30610110059,3061011,059 RAJSKÓW,0059
28010520058,2801052,ŻOŁĘDNIK,0058
32030520058,3203052,ŻABINEK,0058
14080110058,1408011,58,0058
14170210058,1417021,58,0058
14340210058,1434021,5-15,0058
28010520057,2801052,ZIĘBY,0057
32160420057,3216042,JEZIERZYCE,0057
04620110057,0462011,057,0057
14060320057,1406032,ZADĘBIE,0057
28050220057,2805022,ZDUNKI,0057
28010520056,2801052,ZIELENICA,0056
32160420056,3216042,LIPIE,0056
16080720056,1608072,OSIECKO,0056
14640110056,1464011,56,0056
30170110056,3017011,56,0056
32160420055,3216042,MODRZEWIEC,0055
04620110055,0462011,055,0055
14640110055,1464011,55,0055
24610110055,2461011,DOLNE PRZEDMIEŚCIE 55,0055
32610110054,3261011,0054,0054
28080320054,2808032,STACHOWIZNA,0054
32160420054,3216042,RZECINO,0054
14060220054,1406022,ZIEMIĘCIN,0054
14340210054,1434021,5-11,0054
24030110054,2403011,54,0054
20140520054,2014052,TARNOWO GOSKI,0054
32610110053,3261011,0053,0053
28010520053,2801052,WOKIELE,0053
20120820053,2012082,ŻYRWINY,0053
32160420053,3216042,PASZĘCIN,0053
12630110053,1263011,0053,0053
12620110053,1262011,053,0053
14340310053,1434031,03-29,0053
24640110053,2464011,53,0053
32610110052,3261011,0052,0052
28010520052,2801052,WOJMIANY,0052
28080320052,2808032,WÓLKA,0052
32160420052,3216042,ROLE,0052
20120820052,2012082,ŻUBRYN,0052
04620110052,0462011,052,0052
10040420052,1004042,ROCHÓWEK,0052
12620110052,1262011,052,0052
28010520051,2801052,WIEWIÓRKI,0051
32610110051,3261011,0051,0051
28080320051,2808032,WYMIARKI,0051
32160420051,3216042,ŚWIERZNICA,0051
20120820051,2012082,ZABORYSZKI,0051
06630110051,0663011,51-ZEMBORZYCE KOŚC. IV,0051
14080110051,1408011,51,0051
14340310051,1434031,03-27,0051
28010520050,2801052,WĄGRÓDKA,0050
28080320050,2808032,WOPŁAWKI,0050
32160420050,3216042,RĄBINO,0050
20120820050,2012082,WYGORZEL,0050
04610110050,0461011,0050,0050
28620110050,2862011,OLSZTYN 50,0050
30170110050,3017011,50,0050
04640110050,0464011,WŁOCŁAWEK KM 5,0050
28050220050,2805022,ŚNIEPIE,0050
28010520049,2801052,WĄGNIKI,0049
32610110049,3261011,0049,0049
18080320049,1808032,OŻANNA,0049
28080320049,2808032,WINDYKAJMY,0049
32160420049,3216042,BATYŃ,0049
20120820049,2012082,WOJPONIE,0049
10040420049,1004042,PUSTA,0049
14140110049,1414011,12-03,0049
30170110049,3017011,49,0049
18110520048,1811052,ZŁOTNIKI,0048
28010520048,2801052,WARSZKAJTY,0048
32610110048,3261011,0048,0048
18080320048,1808032,KULNO,0048
28080320048,2808032,WILKOWO,0048
20090520048,2009052,BABAŃCE,0048
32160420048,3216042,BIAŁA GÓRA,0048
20120820048,2012082,WIATROŁUŻA DRUGA,0048
12620110048,1262011,048,0048
02640110048,0264011,ŻAR,0048
14640110048,1464011,48,0048
24030110048,2403011,48,0048
28080220048,2808022,SKOCZEWO,0048
30610110048,3061011,048 TYNIEC,0048
20080720048,2008072,BUDY-PRZYTULANKA-CI,0048
18110520047,1811052,WOLA MIELECKA,0047
28010520047,2801052,TROJACZEK,0047
18080320047,1808032,WÓLKA ŁAMANA,0047
28080320047,2808032,WILAMOWO,0047
20090520047,2009052,WIGRAŃCE,0047
32160420047,3216042,GĄSKÓW,0047
20120720047,2012072,ŻYLINY,0047
20120820047,2012082,WĘGIELNIA,0047
04610110047,0461011,0047,0047
14050110047,1405011,07-06,0047
14280320047,1428032,STEGNA,0047
30170110047,3017011,47,0047
30610110047,3061011,047 RYPINEK,0047
32610110047,3261011,0047,0047
18110520046,1811052,WOLA CHORZELOWSKA,0046
32610110046,3261011,0046,0046
28010520046,2801052,TOPRZYNY,0046
18080320046,1808032,KOLONIA POLSKA,0046
28080320046,2808032,WAJSZNORY,0046
20090520046,2009052,SZTABINKI,0046
32160420046,3216042,RĄBINKO,0046
20120720046,2012072,ZIELONE KRÓLEWSKIE,0046
20120820046,2012082,WESOŁOWO,0046
10040420046,1004042,POKRZYWNIA,0046
14050110046,1405011,07-05,0046
14170210046,1417021,46,0046
30170110046,3017011,46,0046
18110520045,1811052,TRZEŚŃ,0045
28010520045,2801052,ŚWIADKI IŁAWECKIE,0045
32610110045,3261011,0045,0045
18080320045,1808032,BRZYSKA WOLA,0045
28080320045,2808032,TRZY LIPY,0045
20090520045,2009052,RACHELANY,0045
32160420045,3216042,GŁODZINO,0045
20120820045,2012082,SZYPLISZKI,0045
20120720045,2012072,ZIELONE KAMEDULSKIE,0045
14170210045,1417021,45,0045
14340110045,1434011,45,0045
24740110045,2474011,45,0045
18110520044,1811052,SZYDŁOWIEC,0044
32610110044,3261011,0044,0044
28010520044,2801052,STEGA MAŁA,0044
14261320044,1426132,ZDANY,0044
18080320044,1808032,KURYŁÓWKA,0044
20090520044,2009052,PÓŁKOTY,0044
20120820044,2012082,SZURY,0044
20120720044,2012072,ZIELONE DRUGIE,0044
14060220044,1406022,WILKONICE,0044
14050110044,1405011,07-03,0044
12630110044,1263011,0044,0044
14140110044,1414011,11-03,0044
14640110044,1464011,44,0044
14340410044,1434041,5-40-03,0044
24030110044,2403011,44,0044
28080320044,2808032,NOWY MIKIELNIK,0044
18110520043,1811052,RZĘDZIANOWICE,0043
18080320043,1808032,DĄBROWICA,0043
28010520043,2801052,SOŁTYSOWIZNA,0043
28080320043,2808032,STARA RÓŻANKA,0043
20090520043,2009052,POĆKUNY,0043
20100420043,2010042,ŻERY-PILAKI,0043
32610110043,3261011,0043,0043
20120720043,2012072,WYCHODNE,0043
20120820043,2012082,SZELMENT,0043
30170110043,3017011,43,0043
18110520042,1811052,RYDZÓW,0042
18080320042,1808032,SŁOBODA,0042
28010520042,2801052,SIGAJNY,0042
28090320042,2809032,PILNIK,0042
28080320042,2808032,SMOKOWO,0042
20090520042,2009052,PODLASKI,0042
20100420042,2010042,ŻERY CZUBIKI,0042
32160620042,3216062,SMARDZKO,0042
32610110042,3261011,0042,0042
20120720042,2012072,WIATROŁUŻA PIERWSZA,0042
20120820042,2012082,GRAUŻE STARE,0042
04620110042,0462011,042,0042
14040520042,1404052,TULISKA,0042
14020220042,1402022,WÓLKA RYDZEWSKA,0042
14170210042,1417021,42,0042
14170110042,1417011,42,0042
14280720042,1428072,HALINÓW,0042
14640110042,1464011,42,0042
20070520042,2007052,ZABAWKA,0042
24680110042,2468011,42,0042
18110520041,1811052,PODLESZANY,0041
18080320041,1808032,TARNAWIEC,0041
28010520041,2801052,SĄGNITY,0041
28090320041,2809032,BLANKI,0041
28080320041,2808032,SŁAWKOWO,0041
20090520041,2009052,OGRODNIKI,0041
20100420041,2010042,ŻERY BYSTRE,0041
20120720041,2012072,WASILCZYKI,0041
20120820041,2012082,SŁOBÓDKA,0041
32160420041,3216042,DĄBROWA BIAŁOGARDZKA,0041
08620110041,0862011,41,0041
04620110041,0462011,041,0041
14050110041,1405011,06-20,0041
12170110041,1217011,041,0041
12620110041,1262011,041,0041
14340110041,1434011,41,0041
30610110041,3061011,041 KORCZAK,0041
32610110041,3261011,0041,0041
18110520040,1811052,KSIĄŻNICE,0040
18080320040,1808032,JASTRZĘBIEC,0040
28010520040,2801052,ROBITY,0040
14261320040,1426132,WÓLKA KAMIENNA,0040
28090320040,2809032,SURYTY,0040
28080320040,2808032,SALPIK,0040
20090520040,2009052,MARKISZKI,0040
20100420040,2010042,TARGOWISK,0040
32610110040,3261011,0040,0040
32160620040,3216062,ROGALINO,0040
20120720040,2012072,TRZCIANE,0040
20120820040,2012082,SITKOWIZNA,0040
14170110040,1417011,40,0040
14340310040,1434031,03-16,0040
24030110040,2403011,40,0040
24740110040,2474011,40,0040
30610110040,3061011,040 KORCZAK,0040
18110520039,1811052,GOLESZÓW,0039
14261320039,1426132,WESÓŁKA,0039
28090320039,2809032,KIERZ,0039
32150520039,3215052,RADOMYŚL,0039
28080320039,2808032,PRĘGOWO,0039
20090520039,2009052,KREJWIŃCE,0039
20100420039,2010042,ŻALE,0039
32160620039,3216062,NIEMIERZYNO,0039
32610110039,3261011,0039,0039
20120820039,2012082,SADZAWKI,0039
20120720039,2012072,TARTAK,0039
20010220039,2001022,ŁĄKI WSI KAMIEŃ,0039
12170110039,1217011,039,0039
10110520039,1011052,WOLA DĄBROWA,0039
14070620039,1407062,GRUSZCZYN ŁĄKI,0039
12620110039,1262011,039,0039
14050110039,1405011,06-18,0039
24030110039,2403011,39,0039
24640110039,2464011,39,0039
30170110039,3017011,39,0039
28010520039,2801052,RESZKOWO,0039
18110520038,1811052,CHRZĄSTÓW,0038
28010520038,2801052,PUDLIKAJMY,0038
14261320038,1426132,TĘCZKI,0038
28090320038,2809032,KOCHANÓWKA,0038
32150520038,3215052,PRZERADZ,0038
28080320038,2808032,POŻARKI,0038
20090520038,2009052,HOŁNY WOLMERA,0038
20100420038,2010042,SYPNIE STARE,0038
32160420038,3216042,NIELEP,0038
20120820038,2012082,RYBALNIA,0038
20120720038,2012072,TACIEWO,0038
12170110038,1217011,038,0038
04620110038,0462011,038,0038
04610110038,0461011,0038,0038
10020220038,1002022,TEODORÓW,0038
14110320038,1411032,ŻABIN ŁUKOWSKI,0038
24640110038,2464011,38,0038
24030110038,2403011,38,0038
28010320038,2801032,ŁOJDY,0038
32610110038,3261011,0038,0038
18110520037,1811052,CHORZELÓW,0037
28010520037,2801052,POWIERSZE,0037
32610110037,3261011,0037,0037
14261320037,1426132,TCHÓRZEW-PLEWKI,0037
28090320037,2809032,STRYJKOWO,0037
32150520037,3215052,STORKOWO,0037
28080320037,2808032,PORĘBEK,0037
20090520037,2009052,HOŁNY MEJERA,0037
20100420037,2010042,SYPNIE NOWE,0037
20090320037,2009032,CZERWONY KRZYŻ,0037
32160620037,3216062,BYSTRZYNA,0037
20120820037,2012082,ROMANIUKI,0037
20120720037,2012072,BRÓD STARY,0037
04620110037,0462011,037,0037
10130420037,1013042,STARY DWÓR,0037
14050110037,1405011,06-16,0037
14060620037,1406062,ZAWIATRACZE KOLONIA,0037
14140110037,1414011,8-11,0037
14370320037,1437032,ŻELAŹNIA,0037
14640110037,1464011,37,0037
24030110037,2403011,37,0037
06040720037,0604072,WYSOKIE,0037
18110520036,1811052,BOŻA WOLA,0036
28010520036,2801052,PIESZKOWO,0036
32150620036,3215062,KUSOWO,0036
32610110036,3261011,0036,0036
14261320036,1426132,TCHÓRZEW,0036
20010320036,2001032,NOWINY STARE,0036
28080320036,2808032,POGANOWO,0036
28090320036,2809032,KŁĘBOWO,0036
20100420036,2010042,STADNIKI,0036
20090320036,2009032,ŻUBRONAJCIE,0036
20090520036,2009052,FOLWARK BERŻNIKI,0036
32160520036,3216052,BIAŁY ZDRÓJ,0036
20120820036,2012082,PRZEJMA WYSOKA,0036
20120720036,2012072,KROPIWNE STARE,0036
04070420036,0407042,RADŁÓWEK,0036
04610110036,0461011,0036,0036
14060220036,1406022,PGR LIPIE,0036
14070620036,1407062,LATKÓW,0036
20120920036,2012092,WYSOKIE,0036
12620110036,1262011,036,0036
14110320036,1411032,ZELKI DĄBROWE,0036
24640110036,2464011,36,0036
24030110036,2403011,36,0036
28010520035,2801052,PIASTY WIELKIE,0035
32150620035,3215062,TRZEBIECHOWO,0035
32610110035,3261011,0035,0035
28080320035,2808032,PARCZ,0035
28090320035,2809032,JARANDOWO,0035
20010320035,2001032,ŁĄKI WSI TAJNO ORZECHÓWKA,0035
20100420035,2010042,SIEMIONY,0035
20090320035,2009032,WYSOKA GÓRA,0035
20120520035,2012052,ŻUBRYNEK,0035
20090520035,2009052,DWORCZYSKO,0035
20120820035,2012082,PRZEJMA WIELKA,0035
20120720035,2012072,TURÓWKA STARA,0035
10040420035,1004042,NAGÓRKI BYSZEWSKIE,0035
12620110035,1262011,035,0035
14640110035,1464011,35,0035
14340110035,1434011,35,0035
30170110035,3017011,35,0035
32160620035,3216062,PRZYMIARKI,0035
28010520034,2801052,PIASEK,0034
32610110034,3261011,0034,0034
32150620034,3215062,BRZEŹNO,0034
28080320034,2808032,OSTRY RÓG,0034
28090320034,2809032,KRASZEWO,0034
20010320034,2001032,ŁĄKI NAD RZEKĄ NETTĄ,0034
20100420034,2010042,RYBAŁTY,0034
20090320034,2009032,ROSOCHATY RÓG,0034
20120520034,2012052,ZIÓŁKOWO,0034
20090520034,2009052,DUBOWO,0034
32160620034,3216062,KROSINO,0034
20060220034,2006022,ŻEBRKI,0034
20120720034,2012072,SOBOLEWO,0034
20120820034,2012082,PRZEJMA MAŁA,0034
04610110034,0461011,0034,0034
04070420034,0407042,PŁAWIN,0034
10140420034,1014042,ZGÓRZ KOLONIA,0034
20030520034,2003052,PUCHAŁY NOWE,0034
32150620033,3215062,NOWE GONNE,0033
32610110033,3261011,0033,0033
14261320033,1426132,SOBICZE,0033
28141020033,2814102,ZGNIŁOCHA,0033
28080320033,2808032,OSEWO,0033
18080420033,1808042,PRZYCHOJEC,0033
28090320033,2809032,MIŁOGÓRZE,0033
20010320033,2001032,BYŁY MAJĄTEK WÓLKA KARWOWSKA,0033
20100420033,2010042,PORZEZINY,0033
20090320033,2009032,RYŻÓWKA,0033
20120520033,2012052,WYSOKIE,0033
20090520033,2009052,BOSSE,0033
32160620033,3216062,PRZYBYSŁAW,0033
20060220033,2006022,WOJSŁAWY,0033
20110320033,2011032,ZAKALE,0033
20120820033,2012082,POSTAWELEK,0033
20120720033,2012072,PRZEBRÓD,0033
04620110033,0462011,033,0033
14121120033,1412112,PRUSY,0033
14251320033,1425132,NATALIN ŁAWKI,0033
22130310033,2213031,33,0033
28150920033,2815092,SMYKÓWKO,0033
30170110033,3017011,33,0033
30310720033,3031072,ŁUGI,0033
20110520033,2011052,ZAJZDRA,0033
32610110032,3261011,0032,0032
32150620032,3215062,DALĘCINKO,0032
14261320032,1426132,SMOLANKA,0032
28010520032,2801052,PAUSTRY,0032
28141020032,2814102,ZABOROWO,0032
28080320032,2808032,NOWA WIEŚ MAŁA,0032
32130320032,3213032,ŻUKOWO MORSKIE,0032
18080420032,1808042,BRZÓZA KRÓLEWSKA,0032
28090320032,2809032,ŚWIĘTNIK,0032
20010320032,2001032,BARGŁÓWEK,0032
20090320032,2009032,REMIEŃKIŃ,0032
20100420032,2010042,NIEWIAROWO-SOCHY,0032
20120520032,2012052,WRONOWO,0032
20090520032,2009052,BERŻAŁOWCE,0032
20110520032,2011052,WYZGI,0032
32160620032,3216062,GOLA DOLNA,0032
20060220032,2006022,WISZOWATE,0032
20110320032,2011032,ZAGÓRZE,0032
20120720032,2012072,POTASZNIA,0032
20120820032,2012082,POLULE,0032
20120920032,2012092,UŻMAUDA,0032
14060620032,1406062,TWORKI,0032
14050110032,1405011,06-11,0032
14170110032,1417011,32,0032
14160220032,1416022,JABŁONOWO-KLACZE,0032
14170210032,1417021,32,0032
20030820032,2003082,OSTRÓWEK,0032
22160320032,2216032,WARTULE,0032
24030110032,2403011,32,0032
32610110031,3261011,0031,0031
32150620031,3215062,GAŁOWO,0031
14261320031,1426132,RZĄŻEW,0031
28010520031,2801052,PAREŻKI,0031
28141020031,2814102,WYRANDY,0031
28080320031,2808032,NOWA WIEŚ KĘTRZYŃSKA,0031
32130320031,3213032,ZIELNOWO,0031
28090320031,2809032,MEDYNY,0031
20010320031,2001032,ŻROBKI,0031
20090320031,2009032,PIOTROWA DĄBROWA,0031
20100420031,2010042,NIEWIAROWO-PRZYBKI,0031
20120520031,2012052,WITÓWKA,0031
20090520031,2009052,BERŻNIKI,0031
32160620031,3216062,OPARZNO,0031
20060220031,2006022,ŚWIDRY PODLEŚNE,0031
20120820031,2012082,POKOMSZE,0031
20120720031,2012072,PODDUBÓWEK,0031
20110320031,2011032,ZABRODZIE,0031
20110520031,2011052,WOŁKUSZ,0031
10130420031,1013042,ROGÓWIEC,0031
14030720031,1403072,TOPOLIN,0031
14380520031,1438052,STARA WIEŚ,0031
14280820031,1428082,ZIELONKA,0031
20111020031,2011102,SZUDZIAŁOWO,0031
28010320031,2801032,LEGINY,0031
30170110031,3017011,31,0031
30610110031,3061011,031 TYNIEC,0031
06061120031,0606112,BOROWINA KOLONIA,0031
32610110030,3261011,0030,0030
32150620030,3215062,SPORE,0030
14261320030,1426132,RÓWCE,0030
28010520030,2801052,OKOPEK,0030
28141020030,2814102,WYGODA,0030
28080320030,2808032,NOWA RÓŻANKA,0030
32130320030,3213032,ZAKRZEWO,0030
18080420030,1808042,PISKOROWICE,0030
20010320030,2001032,WÓLKA KARWOWSKA,0030
28090320030,2809032,ŁABNO,0030
20090320030,2009032,MIKOŁAJEWO,0030
20100420030,2010042,MORZE,0030
20120520030,2012052,WIERCIOCHY,0030
20090520030,2009052,ŻEGARY,0030
20110520030,2011052,WOJNOWCE,0030
32160620030,3216062,LIPCE,0030
20120820030,2012082,PODWOJPONIE,0030
20120720030,2012072,PŁOCICZNO-TARTAK,0030
20110320030,2011032,WYSOKIE,0030
10130620030,1013062,WŁADYSŁAWÓW,0030
14010520030,1401052,KALINÓW-GABRIELÓW,0030
20100920030,2010092,ORZEPY,0030
28080220030,2808022,MARKŁAWKA,0030
28050420030,2805042,POPOWO,0030
26060720030,2606072,TOMASZÓW,0030
28050220030,2805022,NIEKRASY,0030
22130310030,2213031,30,0030
28010520029,2801052,NOWA WIEŚ IŁAWECKA,0029
28141020029,2814102,TRĘKUSEK,0029
28080320029,2808032,NAKOMIADY,0029
32130320029,3213032,ZAGÓRZYN,0029
18080420029,1808042,RZUCHÓW,0029
28090320029,2809032,NOWOSADY,0029
20010320029,2001032,TOBYŁKA,0029
20090320029,2009032,KRÓLÓWEK,0029
20100420029,2010042,MIERZYNÓWKA,0029
20120520029,2012052,WASILÓWKA,0029
20090520029,2009052,ZARUBY,0029
20110520029,2011052,TOŁOCZKI WIELKIE,0029
32160620029,3216062,ŁĄKOWO,0029
20060220029,2006022,SURAŁY,0029
20120820029,2012082,OLSZANKA,0029
20120720029,2012072,PIERTANIE,0029
20110320029,2011032,WYŁUDY,0029
08070320029,0807032,GŁUCHOWO,0029
04620110029,0462011,029,0029
10110520029,1011052,SPĘDOSZYN,0029
14080110029,1408011,29,0029
14060620029,1406062,SZYMANÓW,0029
14070620029,1407062,KOLONIA ROZALIN,0029
14010520029,1401052,ZABAGNIE,0029
14130220029,1413022,TAŃSK KIERNOZY,0029
14110920029,1411092,ZIEMAKI,0029
14190320029,1419032,ROKICIE,0029
14190220029,1419022,PARKOCZEWO,0029
14340110029,1434011,29,0029
14280820029,1428082,STARY MIKOŁAJEW,0029
28150920029,2815092,RYŃSKIE,0029
20140520029,2014052,ŁADY POLNE,0029
28010520028,2801052,NOWA KARCZMA,0028
32610110028,3261011,0028,0028
28141020028,2814102,TRĘKUS,0028
20010320028,2001032,TAJNO PODJEZIORNE,0028
28080320028,2808032,MUŁAWKI,0028
32130320028,3213032,WIEKOWICE,0028
18080420028,1808042,HUCISKO,0028
28090320028,2809032,POMOROWO,0028
20090320028,2009032,ŻUBRÓWKA NOWA,0028
20100420028,2010042,MAKARKI,0028
20120520028,2012052,SZCZODRUCHY,0028
20090520028,2009052,ZALESKIE,0028
20060220028,2006022,STAWIANE,0028
32160620028,3216062,OSOWO,0028
20120820028,2012082,GRAUŻE NOWE,0028
20120720028,2012072,OSOWA,0028
20110320028,2011032,WYŁUDKI,0028
20110520028,2011052,TOŁCZE,0028
10100820028,1010082,KOL. STEFANÓWKA,0028
04620110028,0462011,028,0028
14050620028,1405062,RUMIANKA,0028
20020420028,2002042,SOFIPOL,0028
14020420028,1402042,ZAWADY WŁOŚCIAŃSKIE,0028
14170210028,1417021,28,0028
14340210028,1434021,3-05,0028
30170110028,3017011,28,0028
30230620028,3023062,PONIATÓWEK,0028
14261320027,1426132,MODRZEW,0027
28040220027,2804022,ZIMNOCHY,0027
28010520027,2801052,NERWIKI,0027
32610110027,3261011,0027,0027
20010320027,2001032,TAJNO ŁANOWE,0027
28080320027,2808032,MAŻANY,0027
32130320027,3213032,WICIE,0027
28090320027,2809032,SARNOWO,0027
18080420027,1808042,GWIZDÓW,0027
28141020027,2814102,SZCZĘSNE,0027
20010520027,2001052,OLSZANKA FOLWARK,0027
20090320027,2009032,ŻŁOBIN,0027
20120520027,2012052,SZKOCJA,0027
20090520027,2009052,ŚWIACKIE,0027
20060220027,2006022,STARE GUTY,0027
32160620027,3216062,RUSINOWO,0027
20120820027,2012082,MIKOŁAJÓWKA,0027
20120720027,2012072,OSINKI,0027
20110320027,2011032,WOJTACHY,0027
20110520027,2011052,SZYMAKI,0027
02610110027,0261011,27,0027
06090720027,0609072,WYSOKIE,0027
10070820027,1007082,PORĘBA,0027
14050110027,1405011,06-06,0027
14060320027,1406032,KOZŁÓW,0027
20020520027,2002052,OGRODNICZKI,0027
14170110027,1417011,27,0027
14340110027,1434011,27,0027
26050420027,2605042,SZÓSTAKI,0027
14260720027,1426072,ZALESIE,0027
20100420027,2010042,LUBOWICZE,0027
04060120027,0406012,WIELKI WEŁCZ,0027
22110720026,2211072,ŻELISTRZEWO,0026
28040220026,2804022,ZĄBROWIEC,0026
28010520026,2801052,MIGI,0026
32610110026,3261011,0026,0026
20010320026,2001032,TAJENKO,0026
28080320026,2808032,MARTIANY,0026
32130320026,3213032,SULIMICE,0026
28090320026,2809032,KNIPY,0026
18080420026,1808042,BIEDACZÓW,0026
28141020026,2814102,STARA KALETKA,0026
32130420026,3213042,ŻEGOCINO,0026
20090320026,2009032,STABIEŃSZCZYZNA,0026
20120520026,2012052,DOWSPUDA,0026
20100420026,2010042,KRYNKI SOBOLE,0026
20090520026,2009052,SUMOWO,0026
20010520026,2001052,JURYZDYKA,0026
32160620026,3216062,BEŁTNO,0026
20120820026,2012082,MAJDAN,0026
20120720026,2012072,OKUNIOWIEC,0026
20110320026,2011032,SZUMOWO,0026
20110520026,2011052,STAROWLANY,0026
20060220026,2006022,SKRODA WIELKA,0026
10020920026,1002092,WÓLKA JANKI-LIZIGÓDŹ,0026
10040620026,1004062,RSP GIECZNO,0026
10010320026,1001032,TERESIN,0026
14140110026,1414011,7-01,0026
14290920026,1429092,STERDYŃ-OSADA,0026
14240120026,1424012,SISICE,0026
22120720026,2212072,ŻYCHLIN,0026
22610110026,2261011,026,0026
28050420026,2805042,NIEDŹWIEDZKIE,0026
30090320026,3009032,RDUTÓW,0026
22110720025,2211072,ZDRADA,0025
14100120025,1410012,ŻURAWLÓWKA,0025
14261320025,1426132,ŁUGI-RĘTKI,0025
28040220025,2804022,SZYMBORY,0025
28010520025,2801052,LIPNIKI,0025
32610110025,3261011,0025,0025
20010320025,2001032,TAJNO STARE,0025
28080320025,2808032,MARSZEWO,0025
32130320025,3213032,STARY JAROSŁAW,0025
06110920025,0611092,ZEMBRY,0025
28090320025,2809032,MARKAJMY,0025
18080420025,1808042,CHAŁUPKI DĘBNIAŃSK.,0025
32130420025,3213042,ZIELENICA,0025
28141020025,2814102,SILICE,0025
20090320025,2009032,SMOLANY DĄB,0025
20090520025,2009052,RYNKOJEZIORY,0025
20120520025,2012052,SUCHA WIEŚ,0025
20100420025,2010042,KRYNKI JARKI,0025
20010520025,2001052,WALNE,0025
32160620025,3216062,BERKANOWO,0025
20120820025,2012082,ŁOWOCIE,0025
20110320025,2011032,SZACIŁÓWKA,0025
20120720025,2012072,BRÓD NOWY,0025
20110520025,2011052,SACZKOWCE,0025
20060220025,2006022,SIWKI,0025
14060620025,1406062,PRZYDRÓŻEK,0025
14110320025,1411032,RUTKI,0025
02610110025,0261011,CZARNE - I,0025
14150120025,1415012,OSTRÓWEK,0025
14170210025,1417021,25,0025
14320420025,1432042,WALENTÓW,0025
20130520025,2013052,SIKORY-BARTYCZKI,0025
24030110025,2403011,25,0025
22130310025,2213031,25,0025
28010320025,2801032,KIERSITY,0025
30170110025,3017011,25,0025
28620110025,2862011,OLSZTYN 25,0025
28050220025,2805022,MĄKI,0025
22110720024,2211072,WERBLINIA,0024
14100120024,1410012,ZIENIE,0024
28040220024,2804022,SWĘDKOWO,0024
14261320024,1426132,ŁUGI WIELKIE,0024
28010520024,2801052,LEŚNICTWO ORSY,0024
32610110024,3261011,0024,0024
32150620024,3215062,STARE WIERZCHOWO,0024
22110310024,2211031,2.4,0024
18120120024,1812012,PÓŁSIERAKÓW,0024
28080320024,2808032,LINKOWO,0024
32130320024,3213032,SŁOWINO SŁOWINKO,0024
06110920024,0611092,ZAOLSZYNIE,0024
28090320024,2809032,LAUDA,0024
18080420024,1808042,DĘBNO,0024
32130420024,3213042,ŚWIĘCIANOWO,0024
28141020024,2814102,PURDKA,0024
20010320024,2001032,KAMIONKA STARA,0024
20090320024,2009032,SKUSTELE,0024
20090520024,2009052,RADZIUSZKI,0024
20120920024,2012092,ROGOŻAJNY MAŁE,0024
20090220024,2009022,FRĄCKI,0024
20120520024,2012052,SŁOBODA,0024
20100420024,2010042,KRYNKI BOROWE,0024
20010520024,2001052,TOBOŁOWO,0024
32160620024,3216062,KLĘPCZEWO,0024
20120820024,2012082,LIPOWO,0024
20110320024,2011032,STOK,0024
20120720024,2012072,KROPIWNE NOWE,0024
20110520024,2011052,POPŁAWCE,0024
20060220024,2006022,ROSOCHATE,0024
10190110024,1019011,DWUDZIESTY CZWARTY,0024
10070820024,1007082,NOWA GÓRA,0024
02080720024,0208072,ROSZYCE,0024
20020420024,2002042,PRZECHODY,0024
12620110024,1262011,024,0024
14200520024,1420052,SARNOWO-GÓRY,0024
14200720024,1420072,SKARSZYN,0024
20030520024,2003052,OLSZEWEK,0024
26130120024,2613012,ZABRODZIE,0024
30170110024,3017011,24,0024
30090320024,3009032,NIWKI PGR,0024
30090720024,3009072,WANDYNÓW,0024
22110720023,2211072,SWARZEWO,0023
28040220023,2804022,STARY CIESZYN,0023
14100120023,1410012,WYGODA,0023
28010520023,2801052,KUMKIEJMY,0023
32150620023,3215062,DRĘŻNO,0023
22110310023,2211031,2.3,0023
32610110023,3261011,0023,0023
28080320023,2808032,LANGANKI,0023
18120120023,1812012,SZELIGA,0023
28090320023,2809032,DŁUGOŁĘKA,0023
18080420023,1808042,MALENISKA,0023
32130420023,3213042,SULECHÓWKO,0023
06110920023,0611092,WYLANY,0023
28141020023,2814102,PURDA,0023
20010320023,2001032,SOLISTÓWKA,0023
20090320023,2009032,RUDAWKA,0023
20090520023,2009052,RADZIUCIE,0023
20120920023,2012092,POPLIN,0023
20090220023,2009022,BIAŁORZECZKA,0023
20120520023,2012052,STOKI,0023
20100420023,2010042,KRYNKI BIAŁOKUNKI,0023
20010520023,2001052,SZCZEPKI,0023
32160620023,3216062,CIESZYNO,0023
20120820023,2012082,LIPINA,0023
20110320023,2011032,SKINDZIERZ,0023
20120720023,2012072,NOWA WIEŚ,0023
20110520023,2011052,PARCZOWCE,0023
20060220023,2006022,PRZYBOROWO,0023
02230920023,0223092,SZUKALICE,0023
12170110023,1217011,023,0023
10170520023,1017052,SKALENIEC,0023
10040420023,1004042,JANÓW,0023
14060220023,1406022,JULIANÓW,0023
02150220023,0215022,WYSZKOWICE,0023
14050620023,1405062,PIEŃKI SŁUBICKIE,0023
14190220023,1419022,MĄKOLIN KOLONIA,0023
14191420023,1419142,PGR OPATÓWIEC,0023
14340310023,1434031,01-23,0023
14340410023,1434041,5-10-04,0023
14350620023,1435062,PGR NIEGÓW,0023
30170110023,3017011,23,0023
32070520023,3207052,KRZEMYKOWO,0023
30610110023,3061011,023 PISKORZEWIE,0023
32130320023,3213032,SIŃCZYCA,0023
22110720022,2211072,STRZELNO,0022
28040220022,2804022,SKOWRONY,0022
22060820022,2206082,ZAMEK KISZEWSKI,0022
28010520022,2801052,KRASNOŁĄKA,0022
14100120022,1410012,WŁADYSŁAWÓW,0022
14261320022,1426132,LUCYNÓW,0022
32610110022,3261011,0022,0022
32150620022,3215062,GRĄBCZYN,0022
28130620022,2813062,WOJNASY,0022
22110310022,2211031,2.2,0022
06110920022,0611092,WÓLKA KONOPNA,0022
28080320022,2808032,KWIEDZINA,0022
18120120022,1812012,ROGÓŹNIA,0022
32130320022,3213032,RUSKO,0022
28090320022,2809032,BOBROWNIK,0022
18080420022,1808042,WIERZAWICE,0022
32130420022,3213042,SULECHOWO,0022
28141020022,2814102,PRZYKOP,0022
20010320022,2001032,RUMIEJKI,0022
20090320022,2009032,ROMANOWCE,0022
20090520022,2009052,POSEJNY,0022
20090220022,2009022,ZELWA,0022
20120520022,2012052,MAŁE RACZKI,0022
20100420022,2010042,KRAKÓWKI ZDZICHY,0022
20010520022,2001052,SZCZEBRA,0022
20120820022,2012082,LIPNIAK,0022
32160620022,3216062,LEKOWO,0022
20110320022,2011032,RYKACZEWO,0022
20120720022,2012072,TURÓWKA NOWA,0022
20110520022,2011052,NOWODZIEL,0022
20060220022,2006022,PASICHY,0022
04610110022,0461011,0022,0022
10100320022,1010032,SZCZUKOCICE MAJĄTEK,0022
06130720022,0613072,IZABELIN,0022
14080110022,1408011,22,0022
14060120022,1406012,SADKÓW DUCHOWNY,0022
02080720022,0208072,ROGÓWEK,0022
14050110022,1405011,06-01,0022
14140220022,1414022,KIŚCINNE,0022
14280520022,1428052,ROZTROPNA,0022
14340210022,1434021,2-03,0022
14260420022,1426042,ZALIWIE-BRZOZÓWKA,0022
14340110022,1434011,22,0022
14320420022,1432042,SZADKÓWEK,0022
16080520022,1608052,KOLONIA BISKUPSKA,0022
22110720021,2211072,STARZYŃSKI DWÓR,0021
28010520021,2801052,KIWAJNY,0021
22150310021,2215031,WEJHEROWO 21,0021
28040220021,2804022,PODĄGI,0021
14100120021,1410012,WAŚKOWÓLKA,0021
22060820021,2206082,WYGONIN,0021
14261320021,1426132,LIPINY,0021
32610110021,3261011,0021,0021
32150620021,3215062,WIERZCHOWO,0021
22110310021,2211031,2.1,0021
18120120021,1812012,PĘK,0021
28080320021,2808032,KRUSZEWIEC,0021
32130320021,3213032,PORZECZE,0021
28090320021,2809032,ŁANIEWO,0021
28120220021,2812022,WONNA,0021
18080420021,1808042,GIEDLAROWA,0021
20010320021,2001032,RESZKI,0021
28141020021,2814102,PREJŁOWO,0021
32130420021,3213042,PRZYSTAWY,0021
06110920021,0611092,WIERZEJKI,0021
20090320021,2009032,PAWŁÓWKA,0021
20090520021,2009052,POSEJANKA,0021
20120920021,2012092,OKLINY,0021
20090220021,2009022,STANOWISKO,0021
20100420021,2010042,KRAKÓWKI WŁODKI,0021
20120520021,2012052,SIDORY,0021
20010520021,2001052,SZCZEBERKA,0021
32160520021,3216052,JASTRZĘBNIKI,0021
20120720021,2012072,NIEMCOWIZNA,0021
20110520021,2011052,MIELESZKOWCE ZALESIAŃSK.,0021
20060220021,2006022,MILEWO - GAŁĄZKI,0021
32030420021,3203042,NOWE WOROWO,0021
20120820021,2012082,KUPOWO-FOLWARK,0021
08010320021,0801032,ORZELEC,0021
04620110021,0462011,021,0021
10150720021,1015072,PODTRZCIANNA,0021
10100420021,1010042,MAJDANY,0021
06091320021,0609132,PALIKIJE SHR,0021
06130720021,0613072,PIESZOWOLA PGR,0021
14070420021,1407042,NOWA WOLA,0021
14190820021,1419082,RĄKCICE,0021
14210210021,1421021,21,0021
20050620021,2005062,RZEPISKA,0021
22010320021,2201032,OSOWSKIE,0021
24640110021,2464011,21,0021
22120920021,2212092,WYSOKA,0021
28110320021,2811032,SZKUDAJ,0021
06201420021,0620142,SKOKÓWKA,0021
04180520021,0418052,SZATKI,0021
20110320021,2011032,RUDKA,0021
28010520020,2801052,KANIE IŁAWECKIE,0020
22110720020,2211072,STARZYNO,0020
22150310020,2215031,WEJHEROWO 20,0020
14100120020,1410012,SILIWONKI,0020
22060820020,2206082,WILCZE BŁOTA,0020
28040220020,2804022,PISKAJNY,0020
32610110020,3261011,0020,0020
14261320020,1426132,KWASY,0020
28180220020,2818022,ŻYTKIEJMY,0020
18120120020,1812012,WÓLKA KUSZE,0020
32130320020,3213032,PALCZEWICE,0020
28090320020,2809032,PGR MORAWA,0020
28120220020,2812022,WIELKA TYMAWA,0020
32130420020,3213042,PODGÓRKI,0020
20010320020,2001032,PRUSKA,0020
06110920020,0611092,TRZEBIESZÓW PIERWSZY,0020
28080320020,2808032,KOTKOWO,0020
20090520020,2009052,OLSZANKA,0020
20120920020,2012092,MIERKINIE,0020
20120520020,2012052,RUDNIKI,0020
20090220020,2009022,BUDWIEĆ,0020
20100420020,2010042,KRAKÓWKI DĄBKI,0020
20010520020,2001052,STRĘKOWIZNA,0020
20090320020,2009032,ORLINEK,0020
32160620020,3216062,KARTLEWO,0020
20120720020,2012072,MAŁA HUTA,0020
20110320020,2011032,PRZESŁAWKA,0020
20060220020,2006022,MARKI,0020
20110520020,2011052,MIELESZKOWCE PAWŁOWICKIE,0020
20120820020,2012082,KRZYWÓLKA,0020
32030420020,3203042,SMOŁDZIĘCINO,0020
02620110020,0262011,BIAŁKA,0020
10630110020,1063011,0,0020
04610110020,0461011,0020,0020
02080720020,0208072,PODTYNIE,0020
14110620020,1411062,NOWE PŁONIAWY,0020
14150720020,1415072,WYŻEGA,0020
14110320020,1411032,MILEWO MALONKI,0020
14340210020,1434021,2-01,0020
22030320020,2203032,SKARSZEWO,0020
24160420020,2416042,TRZCINIEC,0020
26080320020,2608032,ZAWALE NIEGOSŁAWSKIE,0020
30090320020,3009032,KOSERZ,0020
06180520020,0618052,SZALENIK,0020
32110220020,3211022,WARNIK,0020
28141020020,2814102,POKRZYWY,0020
32150620020,3215062,KWAKOWO,0020
28010520019,2801052,KANDYTY,0019
14261320019,1426132,KRZESK-MAJĄTEK,0019
22110720019,2211072,SMOLNO,0019
22150310019,2215031,WEJHEROWO 19,0019
28040220019,2804022,PLAJNY,0019
14100120019,1410012,SEWERYNÓW,0019
22060820019,2206082,STARY BUKOWIEC,0019
32610110019,3261011,0019,0019
28180220019,2818022,ŻABOJEDY,0019
32150620019,3215062,KRĄGŁE,0019
18120120019,1812012,ŻUK NOWY I STARY,0019
32130320019,3213032,NOWY KRAKÓW,0019
28090320019,2809032,ROGÓŻ,0019
28120220019,2812022,SZWARCENOWO,0019
32130420019,3213042,PĘKANINO,0019
20010320019,2001032,POPOWO,0019
28141020019,2814102,PATRYKI,0019
06110920019,0611092,TRZEBIESZÓW KOLONIA,0019
28080320019,2808032,KOL. GNATOWO,0019
20120920019,2012092,MAUDA,0019
20090220019,2009022,KUKLE,0019
20100420019,2010042,KOZŁOWO,0019
20120520019,2012052,RACZKI,0019
32630110019,3263011,KARSIBÓR 19,0019
20010520019,2001052,GATNE PIERWSZE,0019
20090320019,2009032,MUROWANY MOST,0019
20090520019,2009052,NOWOSADY,0019
32160520019,3216052,SOBIEMIRÓW,0019
20110320019,2011032,POPIOŁÓWKA,0019
20120720019,2012072,MAGDALENOWO I WIGRY,0019
20060220019,2006022,ŁUBIANE,0019
20110520019,2011052,MIELENKOWCE,0019
32030420019,3203042,CIEMINKO,0019
20120820019,2012082,KOCIOŁKI,0019
04110620019,0411062,WĄSEWO,0019
04620110019,0462011,019,0019
14080110019,1408011,19,0019
14050110019,1405011,05-19,0019
14190420019,1419042,OSIEK,0019
14320320019,1432032,PINDAL,0019
20100820019,2010082,OLSZEWO,0019
20040320019,2004032,MIKUTY,0019
24030110019,2403011,19,0019
22040420019,2204042,RADUNICA,0019
30050320019,3005032,SZCZEPOWICE,0019
32070520019,3207052,OSIECZE,0019
14020820019,1402082,RADOMKA,0019
28010520018,2801052,KAMIŃSK,0018
22110720018,2211072,SŁAWUTOWO,0018
22150310018,2215031,WEJHEROWO 18,0018
28040220018,2804022,OSIEK,0018
14100120018,1410012,NIEZNANKI,0018
22060820018,2206082,STARE POLASZKI,0018
32610110018,3261011,0018,0018
14261320018,1426132,KRZESK-KRÓLOWA NIWA,0018
18120120018,1812012,RYCZKI,0018
32150520018,3215052,CZECHY,0018
28120420018,2812042,WIELKIE BAŁÓWKI,0018
32130320018,3213032,NOWY JAROSŁAW,0018
28090320018,2809032,KONIEWO,0018
28120220018,2812022,SUMIN,0018
20010320018,2001032,POMIANY,0018
32130420018,3213042,PAPROTY-PAPROTKI,0018
28141020018,2814102,PAJTUNY,0018
06110920018,0611092,TRZEBIESZÓW DRUGI,0018
28080320018,2808032,KOCZARKI,0018
20090220018,2009022,WYSOKI MOST,0018
20100420018,2010042,KOSIANKA TROJANÓWKA,0018
20120520018,2012052,RABALINA,0018
32630110018,3263011,PRZYTÓR 18,0018
20010520018,2001052,SOKOLNE,0018
20090320018,2009032,MICHNOWCE,0018
20090520018,2009052,MARYNOWO,0018
20120920018,2012092,MASZUTKINIE,0018
32160520018,3216052,SŁOWIEŃSKO,0018
20120720018,2012072,LIPNIAK,0018
20060220018,2006022,ŁEBKI MAŁE,0018
20110520018,2011052,ŁOWCZYKI,0018
20120820018,2012082,KLONOREJŚĆ,0018
32030420018,3203042,CHLEBOWO,0018
02170220018,0217022,STACHÓW,0018
08010220018,0801022,GOSTKOWICE,0018
06190520018,0619052,WINCENCIN,0018
02150220018,0215022,RADUSZKOWICE,0018
14150720018,1415072,WARMIAK,0018
14240320018,1424032,MUROWANKA,0018
14200320018,1420032,JESIONKA,0018
14340110018,1434011,18,0018
20080320018,2008032,STAROWOLA,0018
20120120018,2012012,ORŁOWO,0018
20030520018,2003052,MAJOROWIZNA,0018
24640110018,2464011,18,0018
24030110018,2403011,18,0018
24610110018,2461011,DOLNE PRZEDMIEŚCIE 18,0018
22120820018,2212082,LĘKWICA,0018
24041120018,2404112,LUBOJENKA MAJĄTEK,0018
22610110018,2261011,018,0018
30170110018,3017011,18,0018
32120420018,3212042,ŚLAZOWO,0018
32060920018,3206092,WIDUCHOWA 4,0018
20110320018,2011032,OSTRA GÓRA,0018
02260620018,0226062,WYSOCKO,0018
28150520017,2815052,ZAJEZIERZE,0017
22040520017,2204052,TRZEPOWO,0017
22150310017,2215031,WEJHEROWO 17,0017
22110720017,2211072,REKOWO GÓRNE,0017
28040220017,2804022,OLKOWO,0017
14100120017,1410012,MOSTÓW,0017
32610110017,3261011,0017,0017
22060820017,2206082,STARA KISZEWA,0017
14261320017,1426132,KARCZE,0017
32150520017,3215052,GODZISŁAW,0017
18120120017,1812012,SIERAKÓW,0017
28120420017,2812042,WAWROWICE,0017
32130320017,3213032,KRUPY,0017
28090320017,2809032,WIELOCHOWO,0017
28120220017,2812022,SŁUPNICA,0017
20010320017,2001032,PIEŃKI,0017
32130420017,3213042,OSTROWIEC,0017
28141020017,2814102,OSTRZESZEWO,0017
28080320017,2808032,KATKAJMY,0017
06110920017,0611092,TRZEBIESZÓW,0017
20090220017,2009022,WIERŚNIE,0017
20100420017,2010042,KOSIANKA STARA,0017
20120520017,2012052,PODWYSOKIE,0017
20040620017,2004062,ŻEBRY,0017
32630110017,3263011,PRZYTÓR 17,0017
20010520017,2001052,PODNOWINKA,0017
20090320017,2009032,MAĆKOWA RUDA,0017
20090520017,2009052,ŁUMBIE,0017
20120920017,2012092,MARIANKA,0017
32160620017,3216062,ZĄBROWO,0017
20110320017,2011032,OLSZYNKA,0017
20120720017,2012072,LESZCZEWO,0017
20060220017,2006022,ŁEBKI DUŻE,0017
20110520017,2011052,ŁOSOŚNA WIELKA,0017
20120820017,2012082,KALETNIK,0017
32030420017,3203042,PŁOCIE,0017
04110320017,0411032,NARKOWO,0017
06090720017,0609072,PIOTRAWIN 2,0017
10040820017,1004082,PRZYŁOGI,0017
04620110017,0462011,017,0017
10140620017,1014062,RZĘZAWY,0017
14060220017,1406022,GOLIANKI,0017
12620110017,1262011,017,0017
14010220017,1401022,LEKARCICE NOWE,0017
14270320017,1427032,MALANOWO NOWE,0017
14191420017,1419142,MARYCHNÓW,0017
14220620017,1422062,KAWIECZYNO,0017
22040110017,2204011,OBRĘB 17,0017
16060420017,1606042,GRODZIEC,0017
22120720017,2212072,RADOSŁAW,0017
24030110017,2403011,17,0017
22150520017,2215052,TOLISZCZEK,0017
24610110017,2461011,DOLNE PRZEDMIEŚCIE 17,0017
26060820017,2606082,SMUGI,0017
32140420017,3214042,SKRZANY,0017
32150110017,3215011,SZCZECINEK 17,0017
28150520016,2815052,WODZIANY,0016
22040520016,2204052,SUCHA HUTA,0016
22150310016,2215031,WEJHEROWO 16,0016
28040220016,2804022,NOWE WIKROWO,0016
32610110016,3261011,0016,0016
22060820016,2206082,RUDA,0016
14100120016,1410012,MAKARÓWKA,0016
14261320016,1426132,JASIONKA,0016
28120320016,2812032,ZWINIARZ,0016
28130620016,2813062,SOBOLE,0016
22050520016,2205052,WYCZECHOWO,0016
18120120016,1812012,KRZESZÓW GÓRNY,0016
32150520016,3215052,PRZYSTAWY,0016
28120420016,2812042,TOMASZEWO,0016
32130320016,3213032,KOWALEWICZKI,0016
28090320016,2809032,REDY,0016
20010320016,2001032,NOWINY BARGŁOWSKIE,0016
28120220016,2812022,SĘDZICE,0016
06110920016,0611092,ŚWIERCZE,0016
28141020016,2814102,NOWA WIEŚ,0016
32130420016,3213042,NIEMICA,0016
20100420016,2010042,KOSIANKA LEŚNA,0016
20100620016,2010062,WAŁKI,0016
20120520016,2012052,PLANTA,0016
20040620016,2004062,ZALESIE,0016
20090220016,2009022,STUDZIANY LAS,0016
32630110016,3263011,WARSZÓW 16,0016
20010520016,2001052,PODKRÓLÓWEK,0016
20090320016,2009032,ŁOPUCHOWO,0016
20120920016,2012092,MAKOWSZCZYZNA,0016
20090520016,2009052,LASANKA,0016
32160520016,3216052,MIĘDZYRZECZE,0016
20110320016,2011032,NOWINKA,0016
20120720016,2012072,LESZCZEWEK,0016
20060220016,2006022,KURKOWO,0016
20110520016,2011052,LITWINKI,0016
32030420016,3203042,SZCZYCIENKO,0016
02230520016,0223052,NOWINY,0016
06090220016,0609022,MAJDAN RADLIŃSKI,0016
10630110016,1063011,NR16,0016
06010320016,0601032,KAMIENICZNE,0016
04160120016,0416012,ZIELONKA,0016
06090920016,0609092,NOWINY ŻUKOWSKIE,0016
14050110016,1405011,05-16,0016
14280720016,1428072,KARWOWO,0016
14340210016,1434021,1-16,0016
14340410016,1434041,4-90-08,0016
24640110016,2464011,16,0016
28180120016,2818012,ZAWADY,0016
28090220016,2809022,GOŚCIECHOWO,0016
26020920016,2602092,LUDWINÓW,0016
28080220016,2808022,GŁÓWCZYNO,0016
32150110016,3215011,SZCZECINEK 16,0016
20120820016,2012082,JEZIORKI,0016
28080320016,2808032,KASKAJMY,0016
28130620015,2813062,RYNIE,0015
28150520015,2815052,WILAMOWO,0015
22150310015,2215031,WEJHEROWO 15,0015
22040520015,2204052,STARA HUTA,0015
28040220015,2804022,MIŁOSNA,0015
22110720015,2211072,POŁCZYNO,0015
32610110015,3261011,0015,0015
28180220015,2818022,PRZEROŚL GOŁDAPSKA,0015
22060820015,2206082,PAŁUBIN,0015
14100120015,1410012,ŁAWY,0015
14261320015,1426132,JANUSZÓWKA,0015
28120320015,2812032,ZAJĄCZKOWO,0015
22050520015,2205052,STARKOWA HUTA,0015
28010520015,2801052,GROTOWO,0015
28120420015,2812042,TERESZEWO,0015
18120120015,1812012,KUSZE,0015
32130320015,3213032,KOWALEWICE,0015
28090320015,2809032,IGNALIN,0015
20010320015,2001032,KAMIONKA NOWA,0015
28141020015,2814102,NOWA KALETKA,0015
28120220015,2812022,RYWAŁDZIK,0015
06110920015,0611092,SZANIAWY-PONIATY,0015
06150220015,0615022,WRZOSÓW,0015
28040820015,2804082,WYSOKA,0015
28080320015,2808032,KAROLEWO,0015
32150520015,3215052,SŁAWNO,0015
20100620015,2010062,SOBIATYNO,0015
20010620015,2001062,SUCHA RZECZKA,0015
20040620015,2004062,WĄSOSZ,0015
20090220015,2009022,SARNETKI,0015
32630110015,3263011,KARSIBÓR 15,0015
20010520015,2001052,PIJAWNE RUSKIE,0015
20090320015,2009032,LINÓWEK,0015
20090520015,2009052,KRASNOWO,0015
20120920015,2012092,ŁUGIELE,0015
20100420015,2010042,KOSIANKA BORUTY,0015
20120520015,2012052,MOCZYDŁY,0015
32160420015,3216042,KŁODZINO,0015
20110320015,2011032,MIELNIKI,0015
20060220015,2006022,KOWNACIN,0015
20110520015,2011052,KUŹNICA,0015
20120820015,2012082,JEGLINIEC,0015
32030420015,3203042,SIECINO,0015
04610110015,0461011,0015,0015
06070820015,0607082,POPKOWICE KSIĘŻE,0015
10210420015,1021042,REWICA KOLONIA,0015
04620110015,0462011,015,0015
10180420015,1018042,KNAPY AB,0015
06201120015,0620112,KAROLÓWKA LEŚNA,0015
20020820015,2002082,JÓZEFIN,0015
14031320015,1403132,TARNÓW,0015
14140110015,1414011,3-09,0015
14170210015,1417021,15,0015
20111020015,2011102,ŁAŹNISKO,0015
20110220015,2011022,MARCHELÓWKA,0015
26040120015,2604012,HUTA SZKLANA,0015
28170620015,2817062,NOWINY,0015
32050120015,3205012,RACIBORÓW,0015
30610110015,3061011,015 CHMIELNIK,0015
20120720015,2012072,KUKÓW-FOLWARK,0015
32130420015,3213042,MALECHÓWKO,0015
18010320015,1801032,WYDRNE,0015
28150520014,2815052,WIELKI DWÓR,0014
28040220014,2804022,ŁĘPNO,0014
32610110014,3261011,0014,0014
28180220014,2818022,PLUSZKIEJMY,0014
14261320014,1426132,IZDEBKI-WĄSY,0014
22110720014,2211072,POŁCHOWO,0014
22060820014,2206082,OLPUCH,0014
14100120014,1410012,LIWKI SZLACHECKIE,0014
28120320014,2812032,TRZCIN,0014
22050520014,2205052,SOMONINO,0014
28010520014,2801052,GLĄDY,0014
28120420014,2812042,SZAFARNIA,0014
18120120014,1812012,NOWA WIEŚ GM.HARASIUKI,0014
32130320014,3213032,KOPNICA,0014
28090320014,2809032,RUNOWO,0014
20010320014,2001032,ŁABĘTNIK,0014
28120220014,2812022,PODLASEK MAŁY,0014
06110920014,0611092,SZANIAWY-MATYSY,0014
28141020014,2814102,NERWIK,0014
06150220014,0615022,WOLA OSOWIŃSKA,0014
28040820014,2804082,WOPITY,0014
32130420014,3213042,MALECHOWO,0014
28080320014,2808032,JURKI,0014
32150520014,3215052,LUBOGOSZCZ,0014
20100620014,2010062,ROGACZE,0014
20010620014,2001062,STRZELCOWIZNA,0014
20040620014,2004062,SZYMANY,0014
32630110014,3263011,WARSZÓW 14,0014
20090220014,2009022,POSEJNELE,0014
20010520014,2001052,PIJAWNE POLSKIE,0014
20090320014,2009032,KRUCIENISZKI,0014
20120920014,2012092,LESZKIEMIE,0014
20090520014,2009052,KRASNOGRUDA,0014
20120520014,2012052,LUDWINOWO,0014
20100420014,2010042,KORYCINY,0014
32160520014,3216052,CIECHNOWO,0014
20120720014,2012072,KUKÓW,0014
20060220014,2006022,KONOPKI - MONETY,0014
20110520014,2011052,KUŚCIŃCE-WOŁYŃCE,0014
20120820014,2012082,JASIONOWO,0014
32030420014,3203042,GRONOWO,0014
08080320014,0808032,PRZETOCZNICA,0014
10040220014,1004022,LIPÓWKA,0014
10121420014,1012142,MAGDALENKI,0014
08620110014,0862011,14,0014
06190820014,0619082,WYRYKI-KOLONIA,0014
06140620014,0614062,POSIOŁEK,0014
14080110014,1408011,14,0014
02090620014,0209062,STUDNICA,0014
14050620014,1405062,LISÓWEK,0014
14050110014,1405011,05-14,0014
02230920014,0223092,OKRZESZYCE,0014
14180320014,1418032,PGR I RADIOST. ŁAZY,0014
14210210014,1421021,14,0014
14240120014,1424012,NOWE BORZA,0014
14340210014,1434021,1-14,0014
20050420014,2005042,RAKOWICZE,0014
26041120014,2604112,LISIE JAMY,0014
22080110014,2208011,LĘBORK OBR 14,0014
28140520014,2814052,RAPATY,0014
30100320014,3010032,RADWANIEC,0014
30070120014,3007012,KORAB,0014
32080110014,3208011,14,0014
30280220014,3028022,STARĘŻYNEK,0014
32020120014,3202012,STRUMIENNO,0014
20110320014,2011032,MILEWSZCZYZNA,0014
28040220013,2804022,LESISKA,0013
32610110013,3261011,0013,0013
22110720013,2211072,OSŁONINO,0013
28180220013,2818022,MACIEJOWIĘTA,0013
22060820013,2206082,NOWY BUKOWIEC,0013
14100120013,1410012,LIWKI WŁOŚCIAŃSKIE,0013
14261320013,1426132,IZDEBKI-KOŚMIDRY,0013
28120320013,2812032,ŚWINIARC,0013
28010520013,2801052,GAŁAJNY,0013
22050520013,2205052,SŁAWKI,0013
22150310013,2215031,WEJHEROWO 13,0013
28120420013,2812042,SUGAJENKO,0013
18120120013,1812012,MAZIARNIA,0013
32130320013,3213032,KOPAŃ,0013
32130420013,3213042,LEJKOWO,0013
28140820013,2814082,GÓRKOWO,0013
28090320013,2809032,BUGI,0013
28120220013,2812022,PODLASEK,0013
20010320013,2001032,KUKOWO,0013
28141020013,2814102,MARCINKOWO,0013
06150220013,0615022,WOLA CHOMEJOWA,0013
28040820013,2804082,ŚWIĘTY GAJ,0013
06110920013,0611092,ROGALE,0013
28080320013,2808032,JEŻEWO,0013
32150520013,3215052,GRZMIĄCA,0013
20100620013,2010062,POKANIEWO KOLONIA,0013
20010620013,2001062,SERWY,0013
20040620013,2004062,SULEWO-PRUSY,0013
32630110013,3263011,OGNICA 13,0013
20090220013,2009022,POMORZE,0013
20010520013,2001052,OSIŃSKA BUDA,0013
20090320013,2009032,KRASNOPOL,0013
20120920013,2012092,LASKOWSKIE,0013
20090520013,2009052,KONSTANTYNÓWKA,0013
20120520013,2012052,LIPOWO,0013
20100420013,2010042,KAMIANKI,0013
20120720013,2012072,KRZYWE,0013
32160420013,3216042,DOŁGANÓW,0013
20110320013,2011032,ŁOSINIEC,0013
28190220013,2819022,WYŁUDY,0013
20060220013,2006022,KONOPKI - BIAŁYSTOK,0013
20110520013,2011052,KUŚCIN,0013
20120820013,2012082,GŁĘBOKI RÓW,0013
32030420013,3203042,OSTROWICE,0013
02250210013,0225021,XIII,0013
06200220013,0620022,KOLONIA ORNATOWICE,0013
04620110013,0462011,013,0013
10050620013,1005062,OSTROWIEC,0013
10080420013,1008042,RÓŻA,0013
10170620013,1017062,MILEJÓW,0013
20020520013,2002052,IZABELIN,0013
14130620013,1413062,MORAWY,0013
14160620013,1416062,MYŚLIBORY,0013
14290420013,1429042,LUDWINÓW,0013
14201020013,1420102,FOLWARK RACIĄŻ,0013
14370220013,1437022,MIANOWO,0013
14340110013,1434011,13,0013
20110720013,2011072,MAKOWLANY KOL.,0013
20050520013,2005052,KRAŚKOWSZCZYZNA,0013
24030110013,2403011,13,0013
28010320013,2801032,DĘBIANY,0013
30150320013,3015032,LUBIEŃ,0013
30130720013,3013072,SKARŻYŃ,0013
28050320013,2805032,KILE,0013
22151020013,2215102,RESZKI,0013
32610110012,3261011,0012,0012
22110720012,2211072,MRZEZINO,0012
28040520012,2804052,ZALESIE,0012
28180220012,2818022,LINOWO,0012
14261320012,1426132,IZDEBKI-KOSNY,0012
22060820012,2206082,NOWE POLASZKI,0012
14100120012,1410012,KRZYWOŚNITY,0012
28120320012,2812032,RYNEK,0012
28010520012,2801052,GALINY,0012
22150310012,2215031,WEJHEROWO 12,0012
22050520012,2205052,RYBAKI,0012
18120120012,1812012,ŁAZORY,0012
32130320012,3213032,JEŻYCZKI,0012
28140820012,2814082,BĘSIA,0012
32130420012,3213042,LASKI,0012
28090320012,2809032,MIEJSKA WOLA,0012
20010320012,2001032,KROSZÓWKA,0012
28120220012,2812022,PIOTROWICE,0012
28040820012,2804082,ŚLIWICA,0012
28141020012,2814102,ŁAJS,0012
06150220012,0615022,WOLA CHOMEJOWA KOLONIA,0012
06110920012,0611092,POPŁAWY,0012
28080320012,2808032,GROMKI,0012
28120420012,2812042,OTRĘBA,0012
32150520012,3215052,WIELAWINO,0012
20100620012,2010062,POKANIEWO,0012
20010620012,2001062,SERSKI LAS,0012
20040620012,2004062,SULEWO-KOWNATY,0012
20090220012,2009022,POGORZELEC,0012
32630110012,3263011,WARSZÓW 12,0012
20120920012,2012092,KŁAJPEDKA,0012
20090320012,2009032,KRASNE,0012
20090520012,2009052,KOLONIA SEJNY,0012
20120520012,2012052,LIPÓWKA,0012
20100420012,2010042,JASZCZOŁTY,0012
20120720012,2012072,KOROBIEC,0012
32160520012,3216052,KRZECKO,0012
28190220012,2819022,STRĘGIELEK,0012
20110520012,2011052,KRUGLANY,0012
20120820012,2012082,FORNETKA,0012
20060220012,2006022,KAMIŃSKIE,0012
32030420012,3203042,BORNE,0012
04030520012,0403052,NOWA WIOSKA,0012
10050220012,1005022,HELIN,0012
10080320012,1008032,ŁAZISKA,0012
10140320012,1014032,ORŁY,0012
14060220012,1406022,DAŃKÓW NOWY,0012
14100620012,1410062,SZPAKI - KOLONIA,0012
14110220012,1411022,GUTY MAŁE,0012
14060620012,1406062,JASIENIEC 1,0012
02080920012,0208092,LEŚNA,0012
14170210012,1417021,12,0012
14121120012,1412112,DZIĘKOWIZNA,0012
14270620012,1427062,GRĄDY,0012
14260120012,1426012,PRZYWORY MAŁE,0012
20140420012,2014042,RYNOŁTY,0012
16050320012,1605032,WAWRZYŃCOWICE,0012
24640110012,2464011,12,0012
24060820012,2406082,MICHALINÓW,0012
24041520012,2404152,RZĄSAWY ENKLAWA,0012
30230620012,3023062,KORWIN,0012
20010520012,2001052,OLSZANKA,0012
20110320012,2011032,ŁOMY,0012
22060320011,2206032,ZAMOŚĆ,0011
28040220011,2804022,KRYKAJNY,0011
32610110011,3261011,0011,0011
28180220011,2818022,LENKUPIE,0011
22110720011,2211072,MOŚCIE BŁOTA,0011
28040520011,2804052,ZAJĄCZKOWO,0011
14261320011,1426132,IZDEBKI-BŁAŻEJE,0011
22060820011,2206082,LIPY,0011
14100120011,1410012,KRASNA - KOLONIA,0011
28120320011,2812032,OSTASZEWO,0011
28010520011,2801052,DZIKOWO,0011
22050520011,2205052,RĄTY,0011
22150310011,2215031,WEJHEROWO 11,0011
28130620011,2813062,MARKOWSKIE,0011
18120120011,1812012,LAS UCHODÓW,0011
32130320011,3213032,JEŻYCE,0011
28140820011,2814082,WYSOKA DĄBROWA,0011
28090320011,2809032,KASZUNY,0011
18140620011,1814062,URZEJOWICE,0011
20010320011,2001032,KROSZEWO,0011
28120220011,2812022,OSTROWITE,0011
28040820011,2804082,SÓJKI,0011
28080320011,2808032,GRABNO,0011
28141020011,2814102,LINOWO,0011
06150220011,0615022,TCHÓRZEW,0011
06110920011,0611092,PŁUDY,0011
28120420011,2812042,NIELBARK,0011
32130420011,3213042,KUSICE,0011
32150520011,3215052,SUCHA,0011
20010620011,2001062,RYGOL,0011
20040620011,2004062,NIECIKI,0011
20090220011,2009022,OKÓŁEK,0011
32630110011,3263011,WARSZÓW 11,0011
20010520011,2001052,NOWINKA,0011
20090320011,2009032,JEZIORKI,0011
20090520011,2009052,KLEJWY,0011
20120520011,2012052,KURIANKI,0011
20100420011,2010042,GRODZISK,0011
20100620011,2010062,NOWOSIÓŁKI,0011
20110320011,2011032,LASKOWSZCZYZNA,0011
32160520011,3216052,SŁAWOBORZE,0011
20120820011,2012082,DĘBOWO,0011
28190220011,2819022,PRZYTUŁY,0011
20060220011,2006022,GUTY PODLEŚNE,0011
20110520011,2011052,KOWALE KOL.,0011
32030420011,3203042,DONATOWO,0011
20120720011,2012072,KORKLINY,0011
02170120011,0217012,KĘPINO,0011
04070220011,0407022,NIEMOJEWO,0011
06031320011,0603132,POPŁAWY,0011
10130420011,1013042,JANOLIN,0011
10121420011,1012142,KĘPA,0011
10200210011,1020021,OZORKÓW 11,0011
06140620011,0614062,MARIANKA,0011
06050120011,0605012,KOLONIA WOLA STUDZIAŃSKA,0011
14020420011,1402042,NOWY GOŁYMIN,0011
02090320011,0209032,PAWŁOWICE MAŁE,0011
14050110011,1405011,05-11,0011
14010520011,1401052,KSAWERÓW NOWY,0011
14340210011,1434021,1-11,0011
14340110011,1434011,11,0011
24640110011,2464011,11,0011
24160320011,2416032,ZAWADKA,0011
24620110011,2462011,NOWY DWÓR,0011
24110110011,2411011,BOSAC,0011
30170110011,3017011,11,0011
30090920011,3009092,NOWA WIOSKA,0011
32120620011,3212062,KŁĘBY,0011
32140420011,3214042,MOSKORZYN,0011
06201420011,0620142,LIPSKO KOSOBUDY,0011
20120920011,2012092,KŁAJPEDA,0011
02030110011,0203011,KRZEPÓW,0011
22060320010,2206032,WIELE,0010
32610110010,3261011,0010,0010
28180220010,2818022,KIEPOJCIE,0010
22110720010,2211072,MIEROSZYNO,0010
10120820010,1012082,WOŹNIKI,0010
22060820010,2206082,KONARZYNY,0010
28040520010,2804052,WILKOWO,0010
14100120010,1410012,KRASNA,0010
28120320010,2812032,NOWE GRODZICZNO,0010
28010520010,2801052,DULSIN,0010
28130620010,2813062,MAŁE OLECKO,0010
22050520010,2205052,RAMLEJE,0010
22150310010,2215031,WEJHEROWO 10,0010
18120120010,1812012,HUTA NOWA LAS,0010
32130320010,3213032,GLEŹNOWO,0010
28140820010,2814082,WÓJTOWO,0010
32130420010,3213042,KOSIERZEWO,0010
28090320010,2809032,GRABNIK,0010
18140620010,1814062,UJEZNA,0010
28040820010,2804082,RYCHLIKI,0010
28120220010,2812022,OSÓWKO,0010
06110920010,0611092,NURZYNA,0010
28080320010,2808032,GODZIKOWO,0010
28141020010,2814102,KLEWKI,0010
06150220010,0615022,STARA WIEŚ,0010
28120420010,2812042,MIKOŁAJKI,0010
32150520010,3215052,KAMIONKA,0010
20010620010,2001062,RUDAWKA,0010
20010520010,2001052,GATNE DRUGIE,0010
20090320010,2009032,JEGLÓWEK,0010
20090520010,2009052,KIELCZANY,0010
20120520010,2012052,KRUKÓWEK,0010
20040620010,2004062,NIEBRZYDY,0010
20100420010,2010042,DROCHLIN,0010
32630110010,3263011,ŚWINOUJŚCIE 10,0010
20100620010,2010062,MILEJCZYCE,0010
32160520010,3216052,ZAGRODY,0010
20120820010,2012082,DĘBNIAK,0010
20110520010,2011052,KOWALE,0010
28190220010,2819022,PRZERWANKI,0010
20060220010,2006022,GRĄDY - MOŻDŻENIE,0010
32030420010,3203042,JELENINO,0010
20120720010,2012072,GAWRYCH RUDA,0010
20110320010,2011032,KUMIAŁA,0010
04190520010,0419052,GOŚCIESZYNEK,0010
10160420010,1016042,HELENÓW,0010
08020420010,0802042,ŁAGÓW,0010
06030620010,0603062,MAJDAN PŁAWANICKI,0010
28070210010,2807021,LUBAWA 10,0010
14060120010,1406012,JULIANÓW,0010
02170220010,0217022,KOMOROWICE,0010
14020520010,1402052,NIEBORZYN,0010
12170110010,1217011,010,0010
14340110010,1434011,10,0010
20120120010,2012012,KLONOWA GÓRA,0010
20110720010,2011072,KRZYSZTOFOROWO,0010
20050420010,2005042,ŁUSZCZE,0010
20050820010,2005082,HAJDUKOWSZCZYZNA,0010
28180120010,2818012,OBSZARNIKI,0010
28060620010,2806062,MIECHY,0010
28030220010,2803022,KLĘCZKOWO,0010
30070520010,3007052,MARIANÓW,0010
32050320010,3205032,KUSIN,0010
06060520010,0606052,ŁANY,0010
32150110010,3215011,SZCZECINEK 10,0010
20010320010,2001032,KOMORNIKI,0010
20090220010,2009022,KRASNE,0010
28180220009,2818022,KIEKSKIEJMY,0009
22060320009,2206032,WDZYDZE TUCHOLSKIE,0009
22110720009,2211072,MECHOWO,0009
10120820009,1012082,WOLA BLAKOWA,0009
22060820009,2206082,KOBYLE,0009
14100120009,1410012,KOWNATY,0009
28040520009,2804052,RYCHNOWY,0009
14261320009,1426132,GROCHÓWKA,0009
28120320009,2812032,MROCZNO,0009
28010520009,2801052,DWÓRZNO,0009
22150310009,2215031,WEJHEROWO 09,0009
32610110009,3261011,0009,0009
28130620009,2813062,KRZYŻEWKO,0009
22050520009,2205052,POŁĘCZYNO,0009
28040220009,2804022,GWIŹDZINY,0009
28140820009,2814082,WĄGSTY,0009
18120120009,1812012,HUTA NOWA,0009
32130320009,3213032,DROZDOWO,0009
28090320009,2809032,KOTOWO,0009
32130420009,3213042,KARWICE,0009
18140620009,1814062,ŚWIĘTONIOWA,0009
20010320009,2001032,JUDZIKI,0009
18160520009,1816052,WYRĘBY,0009
28040820009,2804082,MOKAJNY,0009
28120220009,2812022,OSETNO,0009
28080320009,2808032,GNATOWO,0009
28141020009,2814102,KLEBARK WIELKI,0009
06150220009,0615022,SITNO,0009
06110920009,0611092,MIKŁUSY,0009
28120420009,2812042,MARZĘCICE,0009
32150520009,3215052,RADUSZ,0009
32630110009,3263011,ŚWINOUJŚCIE 9,0009
20010620009,2001062,RUBCOWO,0009
20090220009,2009022,KONSTANTYNÓWKA,0009
20010520009,2001052,MONKINIE,0009
20120920009,2012092,KAMIONKA,0009
20090320009,2009032,JEGLINIEC,0009
20090520009,2009052,JODELISZKI,0009
20040620009,2004062,MODZELE,0009
20120520009,2012052,KORYTKI,0009
20100420009,2010042,DOŁUBOWO WYRĘBY,0009
20100620009,2010062,MIKULICZE,0009
32160520009,3216052,TRZCIANA,0009
20120820009,2012082,DEKSZNIE,0009
20110520009,2011052,KLIMÓWKA,0009
28190220009,2819022,POZEZDRZE,0009
20060220009,2006022,GRĄDY - MICHAŁY,0009
32030420009,3203042,GRZYBNO,0009
20120720009,2012072,DUBOWO PIERWSZE,0009
20110320009,2011032,KRUKOWSZCZYZNA,0009
02230320009,0223032,POPOWICE,0009
02150220009,0215022,JANKÓW,0009
04620110009,0462011,009,0009
04610110009,0461011,0009,0009
10150620009,1015062,ŚWIĘTE LASKI,0009
28070210009,2807021,LUBAWA 9,0009
20010720009,2001072,EWY,0009
04010420009,0401042,KUCZEK,0009
14350620009,1435062,KAROLINÓW,0009
20120620009,2012062,KREJWIANY,0009
26110220009,2611022,LIPIE,0009
30170110009,3017011,9,0009
30030620009,3003062,MORACZEWO,0009
30091020009,3009102,FELICJANÓW,0009
30090320009,3009032,DZIERZBICE,0009
32100220009,3210022,KALEŃSKO,0009
30610110009,3061011,009 MAJKÓW,0009
06180920009,0618092,PODHUCIE,0009
32141020009,3214102,KOSZEWO,0009
28180220008,2818022,DUBENINKI,0008
22060320008,2206032,PRZYTARNIA,0008
22110720008,2211072,ŁEBCZ,0008
10120820008,1012082,WIEWIÓRÓW,0008
14100120008,1410012,KOPCE,0008
22060820008,2206082,GÓRNE MALIKI,0008
28040520008,2804052,POMORSKA WIEŚ,0008
28010520008,2801052,DOBRZYNKA,0008
14261320008,1426132,DZIEWULE,0008
28120320008,2812032,MROCZENKO,0008
22150310008,2215031,WEJHEROWO 08,0008
32610110008,3261011,0008,0008
28130620008,2813062,KRUPIN,0008
22050520008,2205052,PIOTROWO,0008
28040220008,2804022,GRUŻAJNY,0008
06110920008,0611092,LESZCZANKA,0008
18120120008,1812012,HUTA STARA,0008
28140820008,2814082,TARNINY,0008
32130320008,3213032,DOMASŁAWICE,0008
32130420008,3213042,GRABOWO,0008
18140420008,1814042,ZAGÓRZE,0008
20010320008,2001032,GÓRSKIE,0008
18140620008,1814062,STUDZIAN,0008
18160520008,1816052,ULANICA,0008
28040820008,2804082,MARWICA,0008
28120220008,2812022,MIERZYN,0008
28080320008,2808032,GAŁWUNY,0008
28141020008,2814102,KLEBARK MAŁY,0008
06150220008,0615022,PASMUGI,0008
28120420008,2812042,MAŁE BAŁÓWKI,0008
32150520008,3215052,MIESZAŁKI,0008
20010620008,2001062,PŁASKA,0008
18200320008,1820032,ŻUPAWA,0008
32630110008,3263011,ŚWINOUJŚCIE 8,0008
20090220008,2009022,KAROLIN,0008
20010520008,2001052,KRUSZNIK,0008
20090320008,2009032,GREMZDY POLSKIE,0008
20090520008,2009052,JENORAJŚCIE,0008
20120520008,2012052,KONIECBÓR,0008
20040620008,2004062,ŁEMPICE,0008
20100420008,2010042,CZARNA WIELKA,0008
20100620008,2010062,MIEDWIEŻYKI,0008
32160520008,3216052,MYSŁOWICE,0008
20120820008,2012082,CZERWONKA,0008
20110520008,2011052,DŁUGOSIELCE,0008
20110320008,2011032,KORYCIN,0008
20060220008,2006022,GRABOWSKIE,0008
28190220008,2819022,PIŁAKI WIELKIE,0008
32030420008,3203042,DOŁGIE,0008
20120720008,2012072,DUBOWO DRUGIE,0008
08040320008,0804032,TYRSZELINY,0008
04021020008,0402102,RÓWNICA,0008
10170620008,1017062,KOLONIA MILEJÓW,0008
04120620008,0412062,ŁAPINÓŻEK,0008
06010720008,0601072,WANDOPOL,0008
08020220008,0802022,DĘBY,0008
06020320008,0602032,EDWARDÓW,0008
02150220008,0215022,GRODZISZOWICE,0008
14050210008,1405021,8,0008
14190120008,1419012,DZIEDZICE,0008
14220720008,1422072,FRANKOWO,0008
14240620008,1424062,GATKA,0008
14340110008,1434011,08,0008
20131020008,2013102,BUJNY-BISZEWO,0008
20070620008,2007062,MROCZKI,0008
22130310008,2213031,8,0008
28150220008,2815022,KLONÓWKO,0008
30210420008,3021042,MIELNO,0008
28090320008,2809032,ŻYTOWO,0008
28180220007,2818022,CZARNE,0007
22060320007,2206032,OSOWO,0007
22110720007,2211072,LEŚNIEWO,0007
22060820007,2206082,GÓRA,0007
10120820007,1012082,LGOTA WIELKA,0007
14100120007,1410012,JUNIEWICZE,0007
28010520007,2801052,DĘBY,0007
28040520007,2804052,PIASTOWO,0007
28120320007,2812032,MONTOWO,0007
22150310007,2215031,WEJHEROWO 07,0007
32610110007,3261011,0007,0007
22050520007,2205052,OSTRZYCE,0007
28040220007,2804022,GRĄDKI,0007
28140820007,2814082,SAMŁAWKI,0007
32130420007,3213042,GORZYCA,0007
18120120007,1812012,HUTA PODGÓRNA,0007
32130320007,3213032,DOBIESŁAW,0007
28090320007,2809032,JAGOTY,0007
18140420007,1814042,WIDACZÓW,0007
20010320007,2001032,DREŃSTWO,0007
28040820007,2804082,LEPNO,0007
18140620007,1814062,ROZBÓRZ,0007
18160520007,1816052,PAWŁOKOMA,0007
28080320007,2808032,FILIPÓWKA,0007
28120220007,2812022,ŁĄKORZ,0007
28141020007,2814102,KABORNO,0007
06150220007,0615022,OSOWNO,0007
28120420007,2812042,LIPOWIEC,0007
32150520007,3215052,NOSIBĄDY,0007
06110920007,0611092,KURÓW,0007
20010620007,2001062,MUŁY,0007
18200320007,1820032,WYDRZA,0007
20090220007,2009022,IWANÓWKA,0007
20010520007,2001052,KOPANICA,0007
32630110007,3263011,ŚWINOUJŚCIE 7,0007
20090520007,2009052,GRYSZKAŃCE,0007
20120920007,2012092,JEGLINISZKI,0007
20090320007,2009032,GREMZDEL,0007
20120520007,2012052,JÓZEFOWO,0007
20100420007,2010042,CZARNA ŚREDNIA,0007
20100620007,2010062,LUBIEJKI,0007
32160520007,3216052,POWALICE,0007
20120820007,2012082,BUDZISKO,0007
20060220007,2006022,GRABOWO,0007
20110520007,2011052,CZUPRYNOWO,0007
28190220007,2819022,PIECZARKI,0007
20120720007,2012072,CZERWONY FOLWARK,0007
32030420007,3203042,PRZYTOŃ,0007
20110320007,2011032,GORSZCZYZNA,0007
08060520007,0806052,ZAGAJE,0007
04170520007,0417052,MAŁE JARANTOWICE,0007
06130120007,0613012,KOL.KRZYWOWIERZBA,0007
10040620007,1004062,GÓRKI ŁUBNICKIE,0007
10050320007,1005032,MARIANKA,0007
10040320007,1004032,GÓRA ŚW.MAŁGORZATY,0007
14080110007,1408011,7,0007
20020420007,2002042,GOBIATY,0007
20021520007,2002152,GÓRA STRĘKOWA,0007
02030420007,0203042,KRZEKOTÓWEK,0007
14150220007,1415022,MICHAŁOWO,0007
14340210007,1434021,1-07,0007
14330920007,1433092,HELENÓW,0007
14280820007,1428082,KAWĘCZYN,0007
14251320007,1425132,ZAKRZEW KRESY,0007
14191220007,1419122,PGR GULCZEWO,0007
20080320007,2008032,GURBICZE,0007
22120620007,2212062,KOMORCZYN,0007
30230420007,3023042,KANIA,0007
30270620007,3027062,GAJÓWKA,0007
28180220006,2818022,CISÓWEK,0006
22060320006,2206032,MIEDZNO,0006
22110720006,2211072,GNIEŻDŻEWO,0006
28010520006,2801052,DEKSYTY,0006
22060820006,2206082,FOSHUTA,0006
10120820006,1012082,KRZYWANICE,0006
28040520006,2804052,OGRODNIKI,0006
14100120006,1410012,HUSZLEW,0006
32610110006,3261011,0006,0006
22150310006,2215031,WEJHEROWO 06,0006
28120320006,2812032,LORKI,0006
22050520006,2205052,KAPLICA,0006
28040220006,2804022,GODKOWO,0006
18140320006,1814032,WOLICA,0006
32130320006,3213032,DĄBKI,0006
28090320006,2809032,NOWA WIEŚ WIELKA,0006
28140820006,2814082,RYN RESZELSKI,0006
32130420006,3213042,DRZEŃSKO,0006
18120120006,1812012,HUTA KRZESZOWSKA,0006
18140420006,1814042,MANASTERZ,0006
20010320006,2001032,BUŁKOWIZNA,0006
28040820006,2804082,KWIETNIEWO,0006
18140620006,1814062,NOWOSIELCE,0006
18160520006,1816052,ŁUBNO,0006
28080320006,2808032,CZERNIKI,0006
28120220006,2812022,LIPINKI,0006
28120420006,2812042,KURZĘTNIK,0006
28141020006,2814102,GROSZKOWO,0006
06150220006,0615022,OLSZEWNICA,0006
06110920006,0611092,KARWÓW,0006
32150520006,3215052,WIELANOWO,0006
20120520006,2012052,JAŚKI,0006
20010620006,2001062,MOŁOWISTE,0006
18200320006,1820032,STALE,0006
20090220006,2009022,GŁĘBOKI BRÓD,0006
32630110006,3263011,ŚWINOUJŚCIE 6,0006
20010520006,2001052,JÓZEFOWO,0006
20120920006,2012092,GRZYBINA,0006
20090320006,2009032,GŁUSZYN,0006
20090520006,2009052,GAWIENIAŃCE,0006
20040620006,2004062,KUDŁACZEWO,0006
20100420006,2010042,CZARNA CERKIEWNA,0006
20100620006,2010062,KLIMKOWICZE,0006
32160520006,3216052,PORADŹ,0006
20060220006,2006022,GOLANKI,0006
20110520006,2011052,CZEPIELE,0006
28190220006,2819022,KUTY,0006
20120720006,2012072,CZARNAKOWIZNA,0006
20110320006,2011032,DZIĘCIOŁÓWKA,0006
20120820006,2012082,BILWINOWO,0006
02230220006,0223022,BUDZIWOJOWICE,0006
08040820006,0804082,ZWIERZYNIEC,0006
04610110006,0461011,0006,0006
04620110006,0462011,006,0006
10120320006,1012032,GÓRKA,0006
08090220006,0809022,PRZEWÓZ,0006
06011120006,0601112,NOWY DWÓR,0006
14050210006,1405021,6,0006
20020420006,2002042,DZIERNIAKOWO,0006
14110920006,1411092,CHOJNOWO,0006
14140320006,1414032,KRUBICZEW,0006
14320420006,1432042,GRĄDKI,0006
14270320006,1427032,DOBRZENICE DUŻE,0006
14220320006,1422032,CHROSTOWO ZALESIE,0006
14370320006,1437032,GOLIATY,0006
24640110006,2464011,6,0006
24020520006,2402052,KOWALE,0006
28140520006,2814052,JADAMINY,0006
28170520006,2817052,KILIMANY,0006
28020620006,2802062,LUBNOWO,0006
30090320006,3009032,CHRZANOWO,0006
14220520006,1422052,KRASKI-ŚLESICE,0006
22060320005,2206032,KARSIN,0005
22110720005,2211072,DOMATÓWKO,0005
28150520005,2815052,KOSZAJNY,0005
28010520005,2801052,CZYPRKI,0005
22060820005,2206082,CZERNIKI,0005
28040520005,2804052,MILEJEWO,0005
10120820005,1012082,KRĘPA,0005
32610110005,3261011,0005,0005
14100120005,1410012,HARACHWOSTY,0005
14261320005,1426132,CHROMNA,0005
22150310005,2215031,WEJHEROWO 05,0005
28120320005,2812032,LINOWIEC,0005
22110310005,2211031,5,0005
22050520005,2205052,KAMELA,0005
28040220005,2804022,DOBRY,0005
18160520005,1816052,LASKÓWKA,0005
18120120005,1812012,HUCISKO,0005
32130420005,3213042,DARSTKOWO,0005
32130320005,3213032,CISOWO,0005
28090320005,2809032,WORKIEJMY,0005
28140820005,2814082,LUTRY,0005
18140320005,1814032,OSTRÓW,0005
20010320005,2001032,BRZOZÓWKA,0005
18140420005,1814042,JAWORNIK PRZEDMIEŚCIE,0005
28040820005,2804082,KRUPIN,0005
18140620005,1814062,MIROCIN,0005
28120220005,2812022,KROTOSZYNY,0005
28141020005,2814102,GRABOWO,0005
06150220005,0615022,NOWINY,0005
28120420005,2812042,KRZEMIENIEWO,0005
32150520005,3215052,KROSINO,0005
06110920005,0611092,JAKUSZE,0005
20120520005,2012052,JANKIELÓWKA,0005
20010620005,2001062,MIKASZÓWKA,0005
18200320005,1820032,PORĘBY FURMAŃSKIE,0005
20090220005,2009022,GIBY,0005
20010520005,2001052,DANOWSKIE,0005
20120920005,2012092,DZIERWANY,0005
20090320005,2009032,CZARNA BUCHTA,0005
20090520005,2009052,GRUDZIEWSZCZYZNA,0005
20100420005,2010042,CZAJE I MAŁYSZCZYN,0005
32630110005,3263011,ŚWINOUJŚCIE 5,0005
20100620005,2010062,GRABARKA,0005
32160520005,3216052,LEPINO,0005
20060220005,2006022,GNATOWO,0005
20110520005,2011052,CIMANIE,0005
28190220005,2819022,KRZYWIŃSKIE,0005
20120720005,2012072,CIMOCHOWIZNA,0005
20120820005,2012082,BIAŁOBŁOTA,0005
02170120005,0217012,BORÓW,0005
10161020005,1016102,JÓZEFIN,0005
10020220005,1002022,CZARNÓW,0005
08090920005,0809092,MILSKO,0005
14080110005,1408011,5,0005
02110220005,0211022,DĄBROWA GÓRNA,0005
02040220005,0204022,CZELADŹ MAŁA,0005
14040520005,1404052,BUDY SUSERSKIE,0005
14140520005,1414052,BRODY-PARCELE,0005
14160520005,1416052,DANIŁÓWKA DRUGA,0005
14190420005,1419042,CHLEBOWO,0005
14220620005,1422062,CZARZASTE BŁOTKI,0005
14320420005,1432042,GRABINA,0005
22040110005,2204011,OBRĘB 5,0005
20110220005,2011022,GABRYLEWSZCZYZNA,0005
20100820005,2010082,GŁODY,0005
20040320005,2004032,CZACHY,0005
24060320005,2406032,JULIANÓW,0005
28030220005,2803022,GNOJENKO,0005
30230720005,3023072,GONICE DRUGIE,0005
20110320005,2011032,DŁUGI ŁUG,0005
28080320005,2808032,BORKI,0005
22110720004,2211072,DOMATOWO,0004
28010520004,2801052,BUKOWIEC,0004
28150520004,2815052,KADZIE,0004
22060820004,2206082,CHWARZNO,0004
28040520004,2804052,MAJEWO,0004
10120820004,1012082,KOLONIA LGOTA WLK.,0004
32610110004,3261011,0004,0004
14100120004,1410012,FELIN,0004
22150310004,2215031,WEJHEROWO 04,0004
28120320004,2812032,KULIGI,0004
22110310004,2211031,4,0004
28040220004,2804022,DĄBKOWO,0004
22050520004,2205052,HOPOWO,0004
28130620004,2813062,GODZIEJEWO,0004
06110920004,0611092,GOŁOWIERZCHY,0004
28090320004,2809032,DRWĘCA,0004
32130420004,3213042,BORKOWO,0004
32130320004,3213032,BUKOWO MORSKIE,0004
28140820004,2814082,KRUZY,0004
18120120004,1812012,HARASIUKI,0004
18140320004,1814032,MIKULICE,0004
20010320004,2001032,BARSZCZE,0004
28040820004,2804082,JELONKI,0004
18140420004,1814042,JAWORNIK POLSKI,0004
18140620004,1814062,GWIZDAJ,0004
18160520004,1816052,HARTA,0004
28080320004,2808032,BIEDASZKI,0004
28120220004,2812022,FITOWO,0004
28141020004,2814102,GIŁAWY,0004
06150220004,0615022,MARUSZEWIEC,0004
28120420004,2812042,KĄCIKI,0004
20010620004,2001062,MACHARCE,0004
32630110004,3263011,ŚWINOUJŚCIE 4,0004
18200320004,1820032,KRAWCE,0004
20090220004,2009022,DWORCZYSKO,0004
20010520004,2001052,CISÓWEK,0004
20120920004,2012092,DZIADÓWEK,0004
20090520004,2009052,DUSZNICA,0004
20090320004,2009032,BUDA RUSKA,0004
20040620004,2004062,KĘDZIOROWO,0004
20100420004,2010042,BOGUSZE STARE,0004
20100620004,2010062,CHOROSZCZEWO,0004
20120520004,2012052,FRANCISZKOWO,0004
32160520004,3216052,STARE ŚLEPCE,0004
20060220004,2006022,CIEMIANKA,0004
20110520004,2011052,CHREPTOWCE,0004
28190220004,2819022,KOLONIA POZEZDRZE,0004
20120820004,2012082,BECEJŁY,0004
20110320004,2011032,BRODY,0004
20120720004,2012072,BURDENISZKI,0004
08030320004,0803032,ORŁOWCE,0004
06081120004,0608112,4-DĘBICA KOLONIA,0004
04620110004,0462011,004,0004
10150120004,1015012,HUMIN D0BRA ZIEMSKIE,0004
10120420004,1012042,KARKOSZKI,0004
10020320004,1002032,IWINY,0004
10020220004,1002022,BARANOWIZNA,0004
10080620004,1008062,BECHCICE,0004
06080420004,0608042,4-NOWINY PRZYTOCKIE,0004
06130720004,0613072,KROPIWKI,0004
06030110004,0603011,OBRĘB 4,0004
02010220004,0201022,CHOŚCISZOWICE,0004
02090620004,0209062,GOŚLINÓW,0004
02050420004,0205042,GRZEGORZÓW,0004
14050110004,1405011,05-04,0004
14110220004,1411022,BUDZYNO-LIPNIKI,0004
14210210004,1421021,04,0004
14220620004,1422062,CHMIELONEK,0004
24070720004,2407072,KOSZWICE,0004
28140720004,2814072,GODKI,0004
30190320004,3019032,JEZIORKI,0004
30280420004,3028042,MIRKOWICE,0004
12120110004,1212011,POLIS PODPOLIS,0004
30070720004,3007072,DZIERZBIN,0004
22080110004,2208011,LĘBORK OBR 4,0004
22070320004,2207032,BROKOWO TYCHNOWIECKIE,0004
22110720003,2211072,DARŻLUBIE,0003
22060820003,2206082,CHWARZENKO,0003
28040520003,2804052,KAMIENNIK WIELKI,0003
32610110003,3261011,0003,0003
10120820003,1012082,KOLONIA KRĘPA,0003
14100120003,1410012,DZIADKOWSKIE - FOLWARK,0003
22150310003,2215031,WEJHEROWO 03,0003
28120320003,2812032,KOWALIKI,0003
22110310003,2211031,3,0003
28040220003,2804022,CIESZYNIEC,0003
22050520003,2205052,GORĘCZYNO,0003
28010520003,2801052,BĄDZE,0003
28130620003,2813062,GĄSIOROWO,0003
28090320003,2809032,BABIAK,0003
32130420003,3213042,BIAŁĘCINO,0003
28140820003,2814082,KOMINKI,0003
18120120003,1812012,GÓZD HUCIAŃSKI,0003
32130320003,3213032,BORYSZEWO,0003
18140320003,1814032,GAĆ,0003
20010320003,2001032,BARGŁÓWKA,0003
28040820003,2804082,JANKOWO,0003
18140420003,1814042,HUCISKO JAWORNICKIE,0003
28120220003,2812022,CZACHÓWKI,0003
18140620003,1814062,GRZĘSKA,0003
18160520003,1816052,DYLĄGOWA,0003
28080320003,2808032,BANASZKI,0003
28141020003,2814102,GĄSIOROWO,0003
06150220003,0615022,KRASEW KOLONIA,0003
28120420003,2812042,KAMIONKA,0003
06110920003,0611092,DĘBOWIERZCHY,0003
20010620003,2001062,GRUSZKI,0003
18200320003,1820032,JEZIÓRKO,0003
20010520003,2001052,BRYZGIEL,0003
20090220003,2009022,DANIŁOWCE,0003
20120920003,2012092,BURNISZKI,0003
20090520003,2009052,DEGUCIE,0003
20040620003,2004062,JAKI,0003
20100420003,2010042,BOGUSZE LITEWKA,0003
20100620003,2010062,CHAŃKI I KOŚCIUKOWICZE,0003
20120520003,2012052,CHODŹKI,0003
32630110003,3263011,ŚWINOUJŚCIE 3,0003
32160520003,3216052,KALINA,0003
20060220003,2006022,CHEŁCHY,0003
28190220003,2819022,JAKUNÓWKO,0003
20110520003,2011052,BILMINY I PALESTYNA,0003
20120820003,2012082,ANDRZEJEWO,0003
20110320003,2011032,BOMBLA,0003
20120720003,2012072,BOBROWISKO,0003
20021520003,2002152,CIBORY KOŁACZKI,0003
20010720003,2001072,CHOMASZEWO,0003
04021020003,0402102,GAJ GRZMIĘCA,0003
10170620003,1017062,DĘBIEC FOLWARK,0003
10100620003,1010062,DASZÓWKA,0003
10050220003,1005022,BOGUMIN,0003
10051020003,1005102,BOGORIA DOLNA,0003
06070520003,0607052,DĄBROWA BÓR,0003
06030520003,0603052,HOLENDRY,0003
06110620003,0611062,BRONISŁAWÓW MAŁY,0003
20010220003,2001022,BÓR,0003
14050110003,1405011,05-03,0003
14170210003,1417021,3,0003
14190720003,1419072,KORZEŃ KRÓLEWSKI,0003
14340110003,1434011,03,0003
14370220003,1437022,BAGIENICE NOWE,0003
22040110003,2204011,OBRĘB 3,0003
20050820003,2005082,CHRABOSTÓWKA,0003
20110720003,2011072,BIERWICHA,0003
22120220003,2212022,DĄBRÓWKA,0003
24041520003,2404152,KONIN II,0003
22080320003,2208032,DZIECHNO,0003
22150420003,2215042,GOŚCIĘCINO,0003
24040220003,2404022,CUDKÓW,0003
26070220003,2607022,BORCUCHY,0003
30180220003,3018022,GRUSZKÓW,0003
30210420003,3021042,DĘBOGÓRA,0003
20090320003,2009032,BOKSZE NOWE,0003
04010720003,0401072,PODZAMCZE,0003
28150520002,2815052,DZIŚNITY,0002
22110720002,2211072,BRUDZEWO,0002
22060820002,2206082,BOŻEPOLE SZLACHECKIE,0002
28040520002,2804052,JAGODNIK,0002
28180220002,2818022,BIAŁE JEZIORKI,0002
10120820002,1012082,DŁUGIE,0002
14100120002,1410012,DZIADKOWSKIE,0002
22150310002,2215031,WEJHEROWO 02,0002
14261320002,1426132,BORKI-WYRKI,0002
28120320002,2812032,GRODZICZNO,0002
28040220002,2804022,BURDAJNY,0002
28010520002,2801052,BĄDLE,0002
22050520002,2205052,EGIERTOWO,0002
28130620002,2813062,CIMOCHY,0002
22060320002,2206032,BORSK,0002
18140620002,1814062,GORLICZYNA,0002
06110920002,0611092,DĘBOWICA,0002
32130320002,3213032,BOBOLIN,0002
28140820002,2814082,KOLNO,0002
20010320002,2001032,BARGŁÓW KOŚCIELNY,0002
28040820002,2804082,GOŁUTOWO,0002
18120120002,1812012,BANACHY,0002
18140320002,1814032,DĘBÓW,0002
18140420002,1814042,HADLE SZKLARSKIE,0002
28090320002,2809032,STABUNITY,0002
28141020002,2814102,BUTRYNY,0002
28120220002,2812022,BISKUPIEC,0002
18160520002,1816052,DĄBRÓWKA STARZEŃSKA,0002
28080320002,2808032,BAŁTRUCIE,0002
06150220002,0615022,KRASEW,0002
28120420002,2812042,BRZOZIE LUBAWSKIE,0002
32130420002,3213042,BARTOLINO,0002
20010620002,2001062,GORCZYCA,0002
18200320002,1820032,JAMNICA,0002
20090220002,2009022,BIAŁOWIERŚNIE,0002
20010520002,2001052,BARSZCZOWA GÓRA,0002
32630110002,3263011,ŚWINOUJŚCIE 2,0002
20120920002,2012092,BOLCIE,0002
20090520002,2009052,BURBISZKI,0002
20040620002,2004062,BUKOWO DUŻE,0002
20100420002,2010042,BISZEWO,0002
20100620002,2010062,BOROWIKI,0002
20120520002,2012052,BOLESTY,0002
32610110002,3261011,0002,0002
32160520002,3216052,ROKOSOWO,0002
20060220002,2006022,BAGIŃSKIE,0002
28190220002,2819022,HARSZ,0002
20110520002,2011052,BIAŁOBŁOCKIE,0002
20120820002,2012082,ALEKSANDRÓWKA,0002
20110320002,2011032,BIAŁYSTOCZEK,0002
20120720002,2012072,BIAŁE,0002
04090220002,0409022,BUDY RADUNEK,0002
12130520002,1213052,ZAOLSZYNIE,0002
04620110002,0462011,002,0002
10160520002,1016052,DĄBROWA,0002
10040220002,1004022,DRZYKOZY,0002
10050720002,1005072,DĄBKOWICE DOLNE,0002
06030820002,0603082,JÓZEFIN,0002
06031420002,0603142,BIELIN,0002
14080220002,1408022,BOŻA WOLA,0002
02100620002,0210062,PRZYLASEK,0002
14050210002,1405021,2,0002
14340310002,1434031,01-02,0002
14320320002,1432032,BIELINY KAMPINOSKIE,0002
14210110002,1421011,02,0002
14210210002,1421021,02,0002
14220320002,1422032,BORKOWO BOKSY,0002
14360120002,1436012,DĘBNIAK,0002
22150210002,2215021,OBRĘB 2,0002
24090420002,2409042,DĘBOWIEC,0002
24060820002,2406082,BAGNA,0002
26050620002,2605062,BIAŁY ŁUG,0002
30170110002,3017011,2,0002
06180320002,0618032,NOWY PRZEORSK,0002
12180620002,1218062,LIPOWA,0002
20120220002,2012022,BARTNIA GÓRA,0002
28150520001,2815052,DRYNKI,0001
22060820001,2206082,BARTOSZYLAS,0001
22110720001,2211072,BŁĄDZIKOWO,0001
28180220001,2818022,BĘDZISZEWO,0001
28040520001,2804052,HUTA ŻUŁAWSKA,0001
10120820001,1012082,BRUDZICE,0001
22150310001,2215031,WEJHEROWO 01,0001
14100120001,1410012,BACHORZA,0001
14261320001,1426132,BORKI-KOSY,0001
22110310001,2211031,1,0001
28010520001,2801052,AUGAMY,0001
28120320001,2812032,BOLESZYN,0001
28040220001,2804022,BIELICA,0001
22050520001,2205052,BORCZ,0001
28130620001,2813062,BARTKI,0001
22060320001,2206032,BĄK,0001
28140820001,2814082,KABINY,0001
06110920001,0611092,CELINY,0001
32130320001,3213032,BARZOWICE,0001
20010320001,2001032,BARGŁÓW DWORNY,0001
28040820001,2804082,BUCZYNIEC,0001
18120120001,1812012,DERYLAKI,0001
18140320001,1814032,BIAŁOBOKI,0001
28090320001,2809032,KŁUSYTY WIELKIE,0001
18140420001,1814042,HADLE KAŃCZUCKIE,0001
18140620001,1814062,CHAŁUPKI,0001
28141020001,2814102,BAŁDY,0001
18160520001,1816052,BACHÓRZ,0001
28080320001,2808032,BAŁOWO,0001
06150220001,0615022,BORKI,0001
28120220001,2812022,BIELICE,0001
28120420001,2812042,BRATUSZEWO,0001
32130420001,3213042,BANIEWO,0001
20010620001,2001062,DALNY LAS,0001
32630110001,3263011,ŚWINOUJŚCIE 1,0001
18200320001,1820032,GRĘBÓW,0001
20090220001,2009022,BIAŁOGÓRY,0001
20010520001,2001052,ATENY,0001
20120920001,2012092,ANTOSIN,0001
20090520001,2009052,BUBELE,0001
20040620001,2004062,BAGIENICE,0001
20090320001,2009032,ALEKSANDROWO,0001
20100420001,2010042,ALEKSANDROWO,0001
20100620001,2010062,BIEŁKI,0001
20120520001,2012052,BAKANIUK,0001
32610110001,3261011,0001,0001
20060220001,2006022,ANDRYCHY,0001
20110520001,2011052,ACHRYMOWCE,0001
28190220001,2819022,GĘBAŁKA,0001
20110320001,2011032,AULAKOWSZCZYZNA,0001
20120720001,2012072,BIAŁA WODA,0001
04150420001,0415042,BRZEZINKO,0001
04110420001,0411042,BARTŁOMIEJOWICE,0001
04070220001,0407022,BĄKOWO,0001
06090720001,0609072,BARAK,0001
04620110001,0462011,001,0001
06090520001,0609052,ABRAMOWICE KOŚCIELNE,0001
14080110001,1408011,1,0001
14060120001,1406012,ALEKSANDRÓWKA,0001
14060620001,1406062,ALFONSOWO,0001
14050110001,1405011,05-01,0001
14121320001,1412132,BESTWINY,0001
14260320001,1426032,ALBINÓW,0001
14340210001,1434021,1-01,0001
20130620001,2013062,CHOJANE-BĄKI,0001
20131020001,2013102,BROK,0001
20040320001,2004032,BARWIKI,0001
22110410001,2211041,CHAŁUPY,0001
24041020001,2404102,BARANÓW I,0001
28080220001,2808022,APTYNTY,0001
30090320001,3009032,ALEKSANDRÓW,0001
30170110001,3017011,1,0001
30140220001,3014022,AUGUSTOWO,0001
30090720001,3009072,ALEKSANDRÓWKA,0001
32100520001,3210052,ROKITNO,0001
32150110001,3215011,SZCZECINEK 01,0001
32040620001,3204062,TRZEBIANOWO,0001
30260120001,3026012,BORECZEK,0001
30250320001,3025032,ALEKSANDRÓW,0001
32160520001,3216052,SŁOWENKOWO,0001
20120820001,2012082,ADAMOWIZNA,0001
